0	00	7.965394
0	01	7.973719
0	02	7.957700
0	03	7.969952
0	04	7.968897
0	05	7.961697
0	06	7.988889
0	07	7.956222
0	08	7.937756
0	09	7.928788
0	10	7.958809
0	11	7.981531
0	12	7.9513997
0	13	7.9599684
0	14	7.9669153
0	15	7.9668797
1	00	8.013608
1	01	7.993043
1	02	7.989094
1	03	7.979642
1	04	7.994274
1	05	7.977773
1	06	8.001765
1	07	7.956842
1	08	7.964697
1	09	7.946929
1	10	7.984669
1	11	7.983127
1	12	7.9646684
1	13	7.9789306
1	14	7.9941162
1	15	7.9861100
