##From Giuseppe, 2 November 2023
#Front Calibration for layers 0-11, back Calibration for layers 12-14. 
0	 0	 6336.470927
0	 1	 6247.408836
0	 2	 4416.523500
0	 3	 6192.652704
0	 4	 3161.659885
0	 5	 2776.641829
0	 6	 3842.655609
0	 7	 5471.891680
0	 8	 6189.465241
0	 9	 6533.321312
0	10	 7739.941752
0	11	 5503.265624
0	12	 5007.870302
0	13	 5679.407251
0	14	 4541.511623
0	15	 9845.8
1	 0	 8101.757688
1	 1	 6596.258736
1	 2	 5073.074690
1	 3	 8789.575663
1	 4	 5350.167874
1	 5	 4108.553095
1	 6	 7277.605268
1	 7	 4087.827578
1	 8	 7518.673968
1	 9	 9482.673029
1	10	 7924.783983
1	11	 7049.101141
1	12	 6897.187675
1	13	 7155.898041
1	14	 6360.627080
1	15	 11096.0
