#This is the calorimeter shift file needed in the software (if ignoring delayed gate)!
#It is the pedestal-delayed gate mean difference between pedestal and no-shower events
#Events are selected using a three step iteration procedure
#At each iteration we use the value of x=Pedestal-Delayed
#The event is removed if on a given layer (x-<x>) > 5 sigma
#This table has been estimated fitting the distribution!
#	Run	Tower	Layer	Mean (NRADC)	 Mean (WRADC)
	80262	0	0	1.200		0.146
	80262	0	1	0.487		0.053
	80262	0	2	2.424		0.298
	80262	0	3	2.198		0.267
	80262	0	4	0.758		0.087
	80262	0	5	1.868		0.225
	80262	0	6	2.510		0.311
	80262	0	7	2.546		0.305
	80262	0	8	-4.622		-0.603
	80262	0	9	-5.081		-0.666
	80262	0	10	-6.060		-0.768
	80262	0	11	-5.335		-0.686
	80262	0	12	-5.066		-0.639
	80262	0	13	-5.419		-0.687
	80262	0	14	-8.189		-1.022
	80262	0	15	-5.331		-0.672
	80262	1	0	-0.003		-0.003
	80262	1	1	1.495		0.183
	80262	1	2	-0.179		-0.036
	80262	1	3	0.622		0.072
	80262	1	4	0.172		0.019
	80262	1	5	1.993		0.242
	80262	1	6	0.444		0.048
	80262	1	7	0.607		0.068
	80262	1	8	-4.027		-0.523
	80262	1	9	-2.374		-0.303
	80262	1	10	17.877		2.225
	80262	1	11	-1.789		-0.221
	80262	1	12	-2.344		-0.309
	80262	1	13	-3.668		-0.462
	80262	1	14	-2.959		-0.377
	80262	1	15	-1.674		-0.210
	80263	0	0	1.200		0.146
	80263	0	1	0.487		0.053
	80263	0	2	2.424		0.298
	80263	0	3	2.198		0.267
	80263	0	4	0.758		0.087
	80263	0	5	1.868		0.225
	80263	0	6	2.510		0.311
	80263	0	7	2.546		0.305
	80263	0	8	-4.622		-0.603
	80263	0	9	-5.081		-0.666
	80263	0	10	-6.060		-0.768
	80263	0	11	-5.335		-0.686
	80263	0	12	-5.066		-0.639
	80263	0	13	-5.419		-0.687
	80263	0	14	-8.189		-1.022
	80263	0	15	-5.331		-0.672
	80263	1	0	-0.003		-0.003
	80263	1	1	1.495		0.183
	80263	1	2	-0.179		-0.036
	80263	1	3	0.622		0.072
	80263	1	4	0.172		0.019
	80263	1	5	1.993		0.242
	80263	1	6	0.444		0.048
	80263	1	7	0.607		0.068
	80263	1	8	-4.027		-0.523
	80263	1	9	-2.374		-0.303
	80263	1	10	17.877		2.225
	80263	1	11	-1.789		-0.221
	80263	1	12	-2.344		-0.309
	80263	1	13	-3.668		-0.462
	80263	1	14	-2.959		-0.377
	80263	1	15	-1.674		-0.210
	80264	0	0	1.200		0.146
	80264	0	1	0.487		0.053
	80264	0	2	2.424		0.298
	80264	0	3	2.198		0.267
	80264	0	4	0.758		0.087
	80264	0	5	1.868		0.225
	80264	0	6	2.510		0.311
	80264	0	7	2.546		0.305
	80264	0	8	-4.622		-0.603
	80264	0	9	-5.081		-0.666
	80264	0	10	-6.060		-0.768
	80264	0	11	-5.335		-0.686
	80264	0	12	-5.066		-0.639
	80264	0	13	-5.419		-0.687
	80264	0	14	-8.189		-1.022
	80264	0	15	-5.331		-0.672
	80264	1	0	-0.003		-0.003
	80264	1	1	1.495		0.183
	80264	1	2	-0.179		-0.036
	80264	1	3	0.622		0.072
	80264	1	4	0.172		0.019
	80264	1	5	1.993		0.242
	80264	1	6	0.444		0.048
	80264	1	7	0.607		0.068
	80264	1	8	-4.027		-0.523
	80264	1	9	-2.374		-0.303
	80264	1	10	17.877		2.225
	80264	1	11	-1.789		-0.221
	80264	1	12	-2.344		-0.309
	80264	1	13	-3.668		-0.462
	80264	1	14	-2.959		-0.377
	80264	1	15	-1.674		-0.210
	80265	0	0	1.200		0.146
	80265	0	1	0.487		0.053
	80265	0	2	2.424		0.298
	80265	0	3	2.198		0.267
	80265	0	4	0.758		0.087
	80265	0	5	1.868		0.225
	80265	0	6	2.510		0.311
	80265	0	7	2.546		0.305
	80265	0	8	-4.622		-0.603
	80265	0	9	-5.081		-0.666
	80265	0	10	-6.060		-0.768
	80265	0	11	-5.335		-0.686
	80265	0	12	-5.066		-0.639
	80265	0	13	-5.419		-0.687
	80265	0	14	-8.189		-1.022
	80265	0	15	-5.331		-0.672
	80265	1	0	-0.003		-0.003
	80265	1	1	1.495		0.183
	80265	1	2	-0.179		-0.036
	80265	1	3	0.622		0.072
	80265	1	4	0.172		0.019
	80265	1	5	1.993		0.242
	80265	1	6	0.444		0.048
	80265	1	7	0.607		0.068
	80265	1	8	-4.027		-0.523
	80265	1	9	-2.374		-0.303
	80265	1	10	17.877		2.225
	80265	1	11	-1.789		-0.221
	80265	1	12	-2.344		-0.309
	80265	1	13	-3.668		-0.462
	80265	1	14	-2.959		-0.377
	80265	1	15	-1.674		-0.210
	80266	0	0	1.200		0.146
	80266	0	1	0.487		0.053
	80266	0	2	2.424		0.298
	80266	0	3	2.198		0.267
	80266	0	4	0.758		0.087
	80266	0	5	1.868		0.225
	80266	0	6	2.510		0.311
	80266	0	7	2.546		0.305
	80266	0	8	-4.622		-0.603
	80266	0	9	-5.081		-0.666
	80266	0	10	-6.060		-0.768
	80266	0	11	-5.335		-0.686
	80266	0	12	-5.066		-0.639
	80266	0	13	-5.419		-0.687
	80266	0	14	-8.189		-1.022
	80266	0	15	-5.331		-0.672
	80266	1	0	-0.003		-0.003
	80266	1	1	1.495		0.183
	80266	1	2	-0.179		-0.036
	80266	1	3	0.622		0.072
	80266	1	4	0.172		0.019
	80266	1	5	1.993		0.242
	80266	1	6	0.444		0.048
	80266	1	7	0.607		0.068
	80266	1	8	-4.027		-0.523
	80266	1	9	-2.374		-0.303
	80266	1	10	17.877		2.225
	80266	1	11	-1.789		-0.221
	80266	1	12	-2.344		-0.309
	80266	1	13	-3.668		-0.462
	80266	1	14	-2.959		-0.377
	80266	1	15	-1.674		-0.210
	80268	0	0	1.200		0.146
	80268	0	1	0.487		0.053
	80268	0	2	2.424		0.298
	80268	0	3	2.198		0.267
	80268	0	4	0.758		0.087
	80268	0	5	1.868		0.225
	80268	0	6	2.510		0.311
	80268	0	7	2.546		0.305
	80268	0	8	-4.622		-0.603
	80268	0	9	-5.081		-0.666
	80268	0	10	-6.060		-0.768
	80268	0	11	-5.335		-0.686
	80268	0	12	-5.066		-0.639
	80268	0	13	-5.419		-0.687
	80268	0	14	-8.189		-1.022
	80268	0	15	-5.331		-0.672
	80268	1	0	-0.003		-0.003
	80268	1	1	1.495		0.183
	80268	1	2	-0.179		-0.036
	80268	1	3	0.622		0.072
	80268	1	4	0.172		0.019
	80268	1	5	1.993		0.242
	80268	1	6	0.444		0.048
	80268	1	7	0.607		0.068
	80268	1	8	-4.027		-0.523
	80268	1	9	-2.374		-0.303
	80268	1	10	17.877		2.225
	80268	1	11	-1.789		-0.221
	80268	1	12	-2.344		-0.309
	80268	1	13	-3.668		-0.462
	80268	1	14	-2.959		-0.377
	80268	1	15	-1.674		-0.210
	80269	0	0	1.200		0.146
	80269	0	1	0.487		0.053
	80269	0	2	2.424		0.298
	80269	0	3	2.198		0.267
	80269	0	4	0.758		0.087
	80269	0	5	1.868		0.225
	80269	0	6	2.510		0.311
	80269	0	7	2.546		0.305
	80269	0	8	-4.622		-0.603
	80269	0	9	-5.081		-0.666
	80269	0	10	-6.060		-0.768
	80269	0	11	-5.335		-0.686
	80269	0	12	-5.066		-0.639
	80269	0	13	-5.419		-0.687
	80269	0	14	-8.189		-1.022
	80269	0	15	-5.331		-0.672
	80269	1	0	-0.003		-0.003
	80269	1	1	1.495		0.183
	80269	1	2	-0.179		-0.036
	80269	1	3	0.622		0.072
	80269	1	4	0.172		0.019
	80269	1	5	1.993		0.242
	80269	1	6	0.444		0.048
	80269	1	7	0.607		0.068
	80269	1	8	-4.027		-0.523
	80269	1	9	-2.374		-0.303
	80269	1	10	17.877		2.225
	80269	1	11	-1.789		-0.221
	80269	1	12	-2.344		-0.309
	80269	1	13	-3.668		-0.462
	80269	1	14	-2.959		-0.377
	80269	1	15	-1.674		-0.210
	80270	0	0	1.200		0.146
	80270	0	1	0.487		0.053
	80270	0	2	2.424		0.298
	80270	0	3	2.198		0.267
	80270	0	4	0.758		0.087
	80270	0	5	1.868		0.225
	80270	0	6	2.510		0.311
	80270	0	7	2.546		0.305
	80270	0	8	-4.622		-0.603
	80270	0	9	-5.081		-0.666
	80270	0	10	-6.060		-0.768
	80270	0	11	-5.335		-0.686
	80270	0	12	-5.066		-0.639
	80270	0	13	-5.419		-0.687
	80270	0	14	-8.189		-1.022
	80270	0	15	-5.331		-0.672
	80270	1	0	-0.003		-0.003
	80270	1	1	1.495		0.183
	80270	1	2	-0.179		-0.036
	80270	1	3	0.622		0.072
	80270	1	4	0.172		0.019
	80270	1	5	1.993		0.242
	80270	1	6	0.444		0.048
	80270	1	7	0.607		0.068
	80270	1	8	-4.027		-0.523
	80270	1	9	-2.374		-0.303
	80270	1	10	17.877		2.225
	80270	1	11	-1.789		-0.221
	80270	1	12	-2.344		-0.309
	80270	1	13	-3.668		-0.462
	80270	1	14	-2.959		-0.377
	80270	1	15	-1.674		-0.210
	80271	0	0	1.200		0.146
	80271	0	1	0.487		0.053
	80271	0	2	2.424		0.298
	80271	0	3	2.198		0.267
	80271	0	4	0.758		0.087
	80271	0	5	1.868		0.225
	80271	0	6	2.510		0.311
	80271	0	7	2.546		0.305
	80271	0	8	-4.622		-0.603
	80271	0	9	-5.081		-0.666
	80271	0	10	-6.060		-0.768
	80271	0	11	-5.335		-0.686
	80271	0	12	-5.066		-0.639
	80271	0	13	-5.419		-0.687
	80271	0	14	-8.189		-1.022
	80271	0	15	-5.331		-0.672
	80271	1	0	-0.003		-0.003
	80271	1	1	1.495		0.183
	80271	1	2	-0.179		-0.036
	80271	1	3	0.622		0.072
	80271	1	4	0.172		0.019
	80271	1	5	1.993		0.242
	80271	1	6	0.444		0.048
	80271	1	7	0.607		0.068
	80271	1	8	-4.027		-0.523
	80271	1	9	-2.374		-0.303
	80271	1	10	17.877		2.225
	80271	1	11	-1.789		-0.221
	80271	1	12	-2.344		-0.309
	80271	1	13	-3.668		-0.462
	80271	1	14	-2.959		-0.377
	80271	1	15	-1.674		-0.210
	80272	0	0	1.200		0.146
	80272	0	1	0.487		0.053
	80272	0	2	2.424		0.298
	80272	0	3	2.198		0.267
	80272	0	4	0.758		0.087
	80272	0	5	1.868		0.225
	80272	0	6	2.510		0.311
	80272	0	7	2.546		0.305
	80272	0	8	-4.622		-0.603
	80272	0	9	-5.081		-0.666
	80272	0	10	-6.060		-0.768
	80272	0	11	-5.335		-0.686
	80272	0	12	-5.066		-0.639
	80272	0	13	-5.419		-0.687
	80272	0	14	-8.189		-1.022
	80272	0	15	-5.331		-0.672
	80272	1	0	-0.003		-0.003
	80272	1	1	1.495		0.183
	80272	1	2	-0.179		-0.036
	80272	1	3	0.622		0.072
	80272	1	4	0.172		0.019
	80272	1	5	1.993		0.242
	80272	1	6	0.444		0.048
	80272	1	7	0.607		0.068
	80272	1	8	-4.027		-0.523
	80272	1	9	-2.374		-0.303
	80272	1	10	17.877		2.225
	80272	1	11	-1.789		-0.221
	80272	1	12	-2.344		-0.309
	80272	1	13	-3.668		-0.462
	80272	1	14	-2.959		-0.377
	80272	1	15	-1.674		-0.210
	80273	0	0	1.200		0.146
	80273	0	1	0.487		0.053
	80273	0	2	2.424		0.298
	80273	0	3	2.198		0.267
	80273	0	4	0.758		0.087
	80273	0	5	1.868		0.225
	80273	0	6	2.510		0.311
	80273	0	7	2.546		0.305
	80273	0	8	-4.622		-0.603
	80273	0	9	-5.081		-0.666
	80273	0	10	-6.060		-0.768
	80273	0	11	-5.335		-0.686
	80273	0	12	-5.066		-0.639
	80273	0	13	-5.419		-0.687
	80273	0	14	-8.189		-1.022
	80273	0	15	-5.331		-0.672
	80273	1	0	-0.003		-0.003
	80273	1	1	1.495		0.183
	80273	1	2	-0.179		-0.036
	80273	1	3	0.622		0.072
	80273	1	4	0.172		0.019
	80273	1	5	1.993		0.242
	80273	1	6	0.444		0.048
	80273	1	7	0.607		0.068
	80273	1	8	-4.027		-0.523
	80273	1	9	-2.374		-0.303
	80273	1	10	17.877		2.225
	80273	1	11	-1.789		-0.221
	80273	1	12	-2.344		-0.309
	80273	1	13	-3.668		-0.462
	80273	1	14	-2.959		-0.377
	80273	1	15	-1.674		-0.210
	80274	0	0	1.200		0.146
	80274	0	1	0.487		0.053
	80274	0	2	2.424		0.298
	80274	0	3	2.198		0.267
	80274	0	4	0.758		0.087
	80274	0	5	1.868		0.225
	80274	0	6	2.510		0.311
	80274	0	7	2.546		0.305
	80274	0	8	-4.622		-0.603
	80274	0	9	-5.081		-0.666
	80274	0	10	-6.060		-0.768
	80274	0	11	-5.335		-0.686
	80274	0	12	-5.066		-0.639
	80274	0	13	-5.419		-0.687
	80274	0	14	-8.189		-1.022
	80274	0	15	-5.331		-0.672
	80274	1	0	-0.003		-0.003
	80274	1	1	1.495		0.183
	80274	1	2	-0.179		-0.036
	80274	1	3	0.622		0.072
	80274	1	4	0.172		0.019
	80274	1	5	1.993		0.242
	80274	1	6	0.444		0.048
	80274	1	7	0.607		0.068
	80274	1	8	-4.027		-0.523
	80274	1	9	-2.374		-0.303
	80274	1	10	17.877		2.225
	80274	1	11	-1.789		-0.221
	80274	1	12	-2.344		-0.309
	80274	1	13	-3.668		-0.462
	80274	1	14	-2.959		-0.377
	80274	1	15	-1.674		-0.210
	80275	0	0	1.200		0.146
	80275	0	1	0.487		0.053
	80275	0	2	2.424		0.298
	80275	0	3	2.198		0.267
	80275	0	4	0.758		0.087
	80275	0	5	1.868		0.225
	80275	0	6	2.510		0.311
	80275	0	7	2.546		0.305
	80275	0	8	-4.622		-0.603
	80275	0	9	-5.081		-0.666
	80275	0	10	-6.060		-0.768
	80275	0	11	-5.335		-0.686
	80275	0	12	-5.066		-0.639
	80275	0	13	-5.419		-0.687
	80275	0	14	-8.189		-1.022
	80275	0	15	-5.331		-0.672
	80275	1	0	-0.003		-0.003
	80275	1	1	1.495		0.183
	80275	1	2	-0.179		-0.036
	80275	1	3	0.622		0.072
	80275	1	4	0.172		0.019
	80275	1	5	1.993		0.242
	80275	1	6	0.444		0.048
	80275	1	7	0.607		0.068
	80275	1	8	-4.027		-0.523
	80275	1	9	-2.374		-0.303
	80275	1	10	17.877		2.225
	80275	1	11	-1.789		-0.221
	80275	1	12	-2.344		-0.309
	80275	1	13	-3.668		-0.462
	80275	1	14	-2.959		-0.377
	80275	1	15	-1.674		-0.210
	80276	0	0	1.200		0.146
	80276	0	1	0.487		0.053
	80276	0	2	2.424		0.298
	80276	0	3	2.198		0.267
	80276	0	4	0.758		0.087
	80276	0	5	1.868		0.225
	80276	0	6	2.510		0.311
	80276	0	7	2.546		0.305
	80276	0	8	-4.622		-0.603
	80276	0	9	-5.081		-0.666
	80276	0	10	-6.060		-0.768
	80276	0	11	-5.335		-0.686
	80276	0	12	-5.066		-0.639
	80276	0	13	-5.419		-0.687
	80276	0	14	-8.189		-1.022
	80276	0	15	-5.331		-0.672
	80276	1	0	-0.003		-0.003
	80276	1	1	1.495		0.183
	80276	1	2	-0.179		-0.036
	80276	1	3	0.622		0.072
	80276	1	4	0.172		0.019
	80276	1	5	1.993		0.242
	80276	1	6	0.444		0.048
	80276	1	7	0.607		0.068
	80276	1	8	-4.027		-0.523
	80276	1	9	-2.374		-0.303
	80276	1	10	17.877		2.225
	80276	1	11	-1.789		-0.221
	80276	1	12	-2.344		-0.309
	80276	1	13	-3.668		-0.462
	80276	1	14	-2.959		-0.377
	80276	1	15	-1.674		-0.210
	80277	0	0	1.200		0.146
	80277	0	1	0.487		0.053
	80277	0	2	2.424		0.298
	80277	0	3	2.198		0.267
	80277	0	4	0.758		0.087
	80277	0	5	1.868		0.225
	80277	0	6	2.510		0.311
	80277	0	7	2.546		0.305
	80277	0	8	-4.622		-0.603
	80277	0	9	-5.081		-0.666
	80277	0	10	-6.060		-0.768
	80277	0	11	-5.335		-0.686
	80277	0	12	-5.066		-0.639
	80277	0	13	-5.419		-0.687
	80277	0	14	-8.189		-1.022
	80277	0	15	-5.331		-0.672
	80277	1	0	-0.003		-0.003
	80277	1	1	1.495		0.183
	80277	1	2	-0.179		-0.036
	80277	1	3	0.622		0.072
	80277	1	4	0.172		0.019
	80277	1	5	1.993		0.242
	80277	1	6	0.444		0.048
	80277	1	7	0.607		0.068
	80277	1	8	-4.027		-0.523
	80277	1	9	-2.374		-0.303
	80277	1	10	17.877		2.225
	80277	1	11	-1.789		-0.221
	80277	1	12	-2.344		-0.309
	80277	1	13	-3.668		-0.462
	80277	1	14	-2.959		-0.377
	80277	1	15	-1.674		-0.210
	80278	0	0	1.200		0.146
	80278	0	1	0.487		0.053
	80278	0	2	2.424		0.298
	80278	0	3	2.198		0.267
	80278	0	4	0.758		0.087
	80278	0	5	1.868		0.225
	80278	0	6	2.510		0.311
	80278	0	7	2.546		0.305
	80278	0	8	-4.622		-0.603
	80278	0	9	-5.081		-0.666
	80278	0	10	-6.060		-0.768
	80278	0	11	-5.335		-0.686
	80278	0	12	-5.066		-0.639
	80278	0	13	-5.419		-0.687
	80278	0	14	-8.189		-1.022
	80278	0	15	-5.331		-0.672
	80278	1	0	-0.003		-0.003
	80278	1	1	1.495		0.183
	80278	1	2	-0.179		-0.036
	80278	1	3	0.622		0.072
	80278	1	4	0.172		0.019
	80278	1	5	1.993		0.242
	80278	1	6	0.444		0.048
	80278	1	7	0.607		0.068
	80278	1	8	-4.027		-0.523
	80278	1	9	-2.374		-0.303
	80278	1	10	17.877		2.225
	80278	1	11	-1.789		-0.221
	80278	1	12	-2.344		-0.309
	80278	1	13	-3.668		-0.462
	80278	1	14	-2.959		-0.377
	80278	1	15	-1.674		-0.210
	80279	0	0	1.200		0.146
	80279	0	1	0.487		0.053
	80279	0	2	2.424		0.298
	80279	0	3	2.198		0.267
	80279	0	4	0.758		0.087
	80279	0	5	1.868		0.225
	80279	0	6	2.510		0.311
	80279	0	7	2.546		0.305
	80279	0	8	-4.622		-0.603
	80279	0	9	-5.081		-0.666
	80279	0	10	-6.060		-0.768
	80279	0	11	-5.335		-0.686
	80279	0	12	-5.066		-0.639
	80279	0	13	-5.419		-0.687
	80279	0	14	-8.189		-1.022
	80279	0	15	-5.331		-0.672
	80279	1	0	-0.003		-0.003
	80279	1	1	1.495		0.183
	80279	1	2	-0.179		-0.036
	80279	1	3	0.622		0.072
	80279	1	4	0.172		0.019
	80279	1	5	1.993		0.242
	80279	1	6	0.444		0.048
	80279	1	7	0.607		0.068
	80279	1	8	-4.027		-0.523
	80279	1	9	-2.374		-0.303
	80279	1	10	17.877		2.225
	80279	1	11	-1.789		-0.221
	80279	1	12	-2.344		-0.309
	80279	1	13	-3.668		-0.462
	80279	1	14	-2.959		-0.377
	80279	1	15	-1.674		-0.210
	80280	0	0	1.200		0.146
	80280	0	1	0.487		0.053
	80280	0	2	2.424		0.298
	80280	0	3	2.198		0.267
	80280	0	4	0.758		0.087
	80280	0	5	1.868		0.225
	80280	0	6	2.510		0.311
	80280	0	7	2.546		0.305
	80280	0	8	-4.622		-0.603
	80280	0	9	-5.081		-0.666
	80280	0	10	-6.060		-0.768
	80280	0	11	-5.335		-0.686
	80280	0	12	-5.066		-0.639
	80280	0	13	-5.419		-0.687
	80280	0	14	-8.189		-1.022
	80280	0	15	-5.331		-0.672
	80280	1	0	-0.003		-0.003
	80280	1	1	1.495		0.183
	80280	1	2	-0.179		-0.036
	80280	1	3	0.622		0.072
	80280	1	4	0.172		0.019
	80280	1	5	1.993		0.242
	80280	1	6	0.444		0.048
	80280	1	7	0.607		0.068
	80280	1	8	-4.027		-0.523
	80280	1	9	-2.374		-0.303
	80280	1	10	17.877		2.225
	80280	1	11	-1.789		-0.221
	80280	1	12	-2.344		-0.309
	80280	1	13	-3.668		-0.462
	80280	1	14	-2.959		-0.377
	80280	1	15	-1.674		-0.210
	80281	0	0	1.200		0.146
	80281	0	1	0.487		0.053
	80281	0	2	2.424		0.298
	80281	0	3	2.198		0.267
	80281	0	4	0.758		0.087
	80281	0	5	1.868		0.225
	80281	0	6	2.510		0.311
	80281	0	7	2.546		0.305
	80281	0	8	-4.622		-0.603
	80281	0	9	-5.081		-0.666
	80281	0	10	-6.060		-0.768
	80281	0	11	-5.335		-0.686
	80281	0	12	-5.066		-0.639
	80281	0	13	-5.419		-0.687
	80281	0	14	-8.189		-1.022
	80281	0	15	-5.331		-0.672
	80281	1	0	-0.003		-0.003
	80281	1	1	1.495		0.183
	80281	1	2	-0.179		-0.036
	80281	1	3	0.622		0.072
	80281	1	4	0.172		0.019
	80281	1	5	1.993		0.242
	80281	1	6	0.444		0.048
	80281	1	7	0.607		0.068
	80281	1	8	-4.027		-0.523
	80281	1	9	-2.374		-0.303
	80281	1	10	17.877		2.225
	80281	1	11	-1.789		-0.221
	80281	1	12	-2.344		-0.309
	80281	1	13	-3.668		-0.462
	80281	1	14	-2.959		-0.377
	80281	1	15	-1.674		-0.210
	80282	0	0	1.200		0.146
	80282	0	1	0.487		0.053
	80282	0	2	2.424		0.298
	80282	0	3	2.198		0.267
	80282	0	4	0.758		0.087
	80282	0	5	1.868		0.225
	80282	0	6	2.510		0.311
	80282	0	7	2.546		0.305
	80282	0	8	-4.622		-0.603
	80282	0	9	-5.081		-0.666
	80282	0	10	-6.060		-0.768
	80282	0	11	-5.335		-0.686
	80282	0	12	-5.066		-0.639
	80282	0	13	-5.419		-0.687
	80282	0	14	-8.189		-1.022
	80282	0	15	-5.331		-0.672
	80282	1	0	-0.003		-0.003
	80282	1	1	1.495		0.183
	80282	1	2	-0.179		-0.036
	80282	1	3	0.622		0.072
	80282	1	4	0.172		0.019
	80282	1	5	1.993		0.242
	80282	1	6	0.444		0.048
	80282	1	7	0.607		0.068
	80282	1	8	-4.027		-0.523
	80282	1	9	-2.374		-0.303
	80282	1	10	17.877		2.225
	80282	1	11	-1.789		-0.221
	80282	1	12	-2.344		-0.309
	80282	1	13	-3.668		-0.462
	80282	1	14	-2.959		-0.377
	80282	1	15	-1.674		-0.210
	80283	0	0	1.200		0.146
	80283	0	1	0.487		0.053
	80283	0	2	2.424		0.298
	80283	0	3	2.198		0.267
	80283	0	4	0.758		0.087
	80283	0	5	1.868		0.225
	80283	0	6	2.510		0.311
	80283	0	7	2.546		0.305
	80283	0	8	-4.622		-0.603
	80283	0	9	-5.081		-0.666
	80283	0	10	-6.060		-0.768
	80283	0	11	-5.335		-0.686
	80283	0	12	-5.066		-0.639
	80283	0	13	-5.419		-0.687
	80283	0	14	-8.189		-1.022
	80283	0	15	-5.331		-0.672
	80283	1	0	-0.003		-0.003
	80283	1	1	1.495		0.183
	80283	1	2	-0.179		-0.036
	80283	1	3	0.622		0.072
	80283	1	4	0.172		0.019
	80283	1	5	1.993		0.242
	80283	1	6	0.444		0.048
	80283	1	7	0.607		0.068
	80283	1	8	-4.027		-0.523
	80283	1	9	-2.374		-0.303
	80283	1	10	17.877		2.225
	80283	1	11	-1.789		-0.221
	80283	1	12	-2.344		-0.309
	80283	1	13	-3.668		-0.462
	80283	1	14	-2.959		-0.377
	80283	1	15	-1.674		-0.210
	80284	0	0	1.200		0.146
	80284	0	1	0.487		0.053
	80284	0	2	2.424		0.298
	80284	0	3	2.198		0.267
	80284	0	4	0.758		0.087
	80284	0	5	1.868		0.225
	80284	0	6	2.510		0.311
	80284	0	7	2.546		0.305
	80284	0	8	-4.622		-0.603
	80284	0	9	-5.081		-0.666
	80284	0	10	-6.060		-0.768
	80284	0	11	-5.335		-0.686
	80284	0	12	-5.066		-0.639
	80284	0	13	-5.419		-0.687
	80284	0	14	-8.189		-1.022
	80284	0	15	-5.331		-0.672
	80284	1	0	-0.003		-0.003
	80284	1	1	1.495		0.183
	80284	1	2	-0.179		-0.036
	80284	1	3	0.622		0.072
	80284	1	4	0.172		0.019
	80284	1	5	1.993		0.242
	80284	1	6	0.444		0.048
	80284	1	7	0.607		0.068
	80284	1	8	-4.027		-0.523
	80284	1	9	-2.374		-0.303
	80284	1	10	17.877		2.225
	80284	1	11	-1.789		-0.221
	80284	1	12	-2.344		-0.309
	80284	1	13	-3.668		-0.462
	80284	1	14	-2.959		-0.377
	80284	1	15	-1.674		-0.210
	80285	0	0	1.200		0.146
	80285	0	1	0.487		0.053
	80285	0	2	2.424		0.298
	80285	0	3	2.198		0.267
	80285	0	4	0.758		0.087
	80285	0	5	1.868		0.225
	80285	0	6	2.510		0.311
	80285	0	7	2.546		0.305
	80285	0	8	-4.622		-0.603
	80285	0	9	-5.081		-0.666
	80285	0	10	-6.060		-0.768
	80285	0	11	-5.335		-0.686
	80285	0	12	-5.066		-0.639
	80285	0	13	-5.419		-0.687
	80285	0	14	-8.189		-1.022
	80285	0	15	-5.331		-0.672
	80285	1	0	-0.003		-0.003
	80285	1	1	1.495		0.183
	80285	1	2	-0.179		-0.036
	80285	1	3	0.622		0.072
	80285	1	4	0.172		0.019
	80285	1	5	1.993		0.242
	80285	1	6	0.444		0.048
	80285	1	7	0.607		0.068
	80285	1	8	-4.027		-0.523
	80285	1	9	-2.374		-0.303
	80285	1	10	17.877		2.225
	80285	1	11	-1.789		-0.221
	80285	1	12	-2.344		-0.309
	80285	1	13	-3.668		-0.462
	80285	1	14	-2.959		-0.377
	80285	1	15	-1.674		-0.210
	80286	0	0	1.200		0.146
	80286	0	1	0.487		0.053
	80286	0	2	2.424		0.298
	80286	0	3	2.198		0.267
	80286	0	4	0.758		0.087
	80286	0	5	1.868		0.225
	80286	0	6	2.510		0.311
	80286	0	7	2.546		0.305
	80286	0	8	-4.622		-0.603
	80286	0	9	-5.081		-0.666
	80286	0	10	-6.060		-0.768
	80286	0	11	-5.335		-0.686
	80286	0	12	-5.066		-0.639
	80286	0	13	-5.419		-0.687
	80286	0	14	-8.189		-1.022
	80286	0	15	-5.331		-0.672
	80286	1	0	-0.003		-0.003
	80286	1	1	1.495		0.183
	80286	1	2	-0.179		-0.036
	80286	1	3	0.622		0.072
	80286	1	4	0.172		0.019
	80286	1	5	1.993		0.242
	80286	1	6	0.444		0.048
	80286	1	7	0.607		0.068
	80286	1	8	-4.027		-0.523
	80286	1	9	-2.374		-0.303
	80286	1	10	17.877		2.225
	80286	1	11	-1.789		-0.221
	80286	1	12	-2.344		-0.309
	80286	1	13	-3.668		-0.462
	80286	1	14	-2.959		-0.377
	80286	1	15	-1.674		-0.210
	80287	0	0	1.200		0.146
	80287	0	1	0.487		0.053
	80287	0	2	2.424		0.298
	80287	0	3	2.198		0.267
	80287	0	4	0.758		0.087
	80287	0	5	1.868		0.225
	80287	0	6	2.510		0.311
	80287	0	7	2.546		0.305
	80287	0	8	-4.622		-0.603
	80287	0	9	-5.081		-0.666
	80287	0	10	-6.060		-0.768
	80287	0	11	-5.335		-0.686
	80287	0	12	-5.066		-0.639
	80287	0	13	-5.419		-0.687
	80287	0	14	-8.189		-1.022
	80287	0	15	-5.331		-0.672
	80287	1	0	-0.003		-0.003
	80287	1	1	1.495		0.183
	80287	1	2	-0.179		-0.036
	80287	1	3	0.622		0.072
	80287	1	4	0.172		0.019
	80287	1	5	1.993		0.242
	80287	1	6	0.444		0.048
	80287	1	7	0.607		0.068
	80287	1	8	-4.027		-0.523
	80287	1	9	-2.374		-0.303
	80287	1	10	17.877		2.225
	80287	1	11	-1.789		-0.221
	80287	1	12	-2.344		-0.309
	80287	1	13	-3.668		-0.462
	80287	1	14	-2.959		-0.377
	80287	1	15	-1.674		-0.210
	80288	0	0	1.200		0.146
	80288	0	1	0.487		0.053
	80288	0	2	2.424		0.298
	80288	0	3	2.198		0.267
	80288	0	4	0.758		0.087
	80288	0	5	1.868		0.225
	80288	0	6	2.510		0.311
	80288	0	7	2.546		0.305
	80288	0	8	-4.622		-0.603
	80288	0	9	-5.081		-0.666
	80288	0	10	-6.060		-0.768
	80288	0	11	-5.335		-0.686
	80288	0	12	-5.066		-0.639
	80288	0	13	-5.419		-0.687
	80288	0	14	-8.189		-1.022
	80288	0	15	-5.331		-0.672
	80288	1	0	-0.003		-0.003
	80288	1	1	1.495		0.183
	80288	1	2	-0.179		-0.036
	80288	1	3	0.622		0.072
	80288	1	4	0.172		0.019
	80288	1	5	1.993		0.242
	80288	1	6	0.444		0.048
	80288	1	7	0.607		0.068
	80288	1	8	-4.027		-0.523
	80288	1	9	-2.374		-0.303
	80288	1	10	17.877		2.225
	80288	1	11	-1.789		-0.221
	80288	1	12	-2.344		-0.309
	80288	1	13	-3.668		-0.462
	80288	1	14	-2.959		-0.377
	80288	1	15	-1.674		-0.210
	80289	0	0	1.200		0.146
	80289	0	1	0.487		0.053
	80289	0	2	2.424		0.298
	80289	0	3	2.198		0.267
	80289	0	4	0.758		0.087
	80289	0	5	1.868		0.225
	80289	0	6	2.510		0.311
	80289	0	7	2.546		0.305
	80289	0	8	-4.622		-0.603
	80289	0	9	-5.081		-0.666
	80289	0	10	-6.060		-0.768
	80289	0	11	-5.335		-0.686
	80289	0	12	-5.066		-0.639
	80289	0	13	-5.419		-0.687
	80289	0	14	-8.189		-1.022
	80289	0	15	-5.331		-0.672
	80289	1	0	-0.003		-0.003
	80289	1	1	1.495		0.183
	80289	1	2	-0.179		-0.036
	80289	1	3	0.622		0.072
	80289	1	4	0.172		0.019
	80289	1	5	1.993		0.242
	80289	1	6	0.444		0.048
	80289	1	7	0.607		0.068
	80289	1	8	-4.027		-0.523
	80289	1	9	-2.374		-0.303
	80289	1	10	17.877		2.225
	80289	1	11	-1.789		-0.221
	80289	1	12	-2.344		-0.309
	80289	1	13	-3.668		-0.462
	80289	1	14	-2.959		-0.377
	80289	1	15	-1.674		-0.210
	80290	0	0	1.200		0.146
	80290	0	1	0.487		0.053
	80290	0	2	2.424		0.298
	80290	0	3	2.198		0.267
	80290	0	4	0.758		0.087
	80290	0	5	1.868		0.225
	80290	0	6	2.510		0.311
	80290	0	7	2.546		0.305
	80290	0	8	-4.622		-0.603
	80290	0	9	-5.081		-0.666
	80290	0	10	-6.060		-0.768
	80290	0	11	-5.335		-0.686
	80290	0	12	-5.066		-0.639
	80290	0	13	-5.419		-0.687
	80290	0	14	-8.189		-1.022
	80290	0	15	-5.331		-0.672
	80290	1	0	-0.003		-0.003
	80290	1	1	1.495		0.183
	80290	1	2	-0.179		-0.036
	80290	1	3	0.622		0.072
	80290	1	4	0.172		0.019
	80290	1	5	1.993		0.242
	80290	1	6	0.444		0.048
	80290	1	7	0.607		0.068
	80290	1	8	-4.027		-0.523
	80290	1	9	-2.374		-0.303
	80290	1	10	17.877		2.225
	80290	1	11	-1.789		-0.221
	80290	1	12	-2.344		-0.309
	80290	1	13	-3.668		-0.462
	80290	1	14	-2.959		-0.377
	80290	1	15	-1.674		-0.210
	80291	0	0	1.200		0.146
	80291	0	1	0.487		0.053
	80291	0	2	2.424		0.298
	80291	0	3	2.198		0.267
	80291	0	4	0.758		0.087
	80291	0	5	1.868		0.225
	80291	0	6	2.510		0.311
	80291	0	7	2.546		0.305
	80291	0	8	-4.622		-0.603
	80291	0	9	-5.081		-0.666
	80291	0	10	-6.060		-0.768
	80291	0	11	-5.335		-0.686
	80291	0	12	-5.066		-0.639
	80291	0	13	-5.419		-0.687
	80291	0	14	-8.189		-1.022
	80291	0	15	-5.331		-0.672
	80291	1	0	-0.003		-0.003
	80291	1	1	1.495		0.183
	80291	1	2	-0.179		-0.036
	80291	1	3	0.622		0.072
	80291	1	4	0.172		0.019
	80291	1	5	1.993		0.242
	80291	1	6	0.444		0.048
	80291	1	7	0.607		0.068
	80291	1	8	-4.027		-0.523
	80291	1	9	-2.374		-0.303
	80291	1	10	17.877		2.225
	80291	1	11	-1.789		-0.221
	80291	1	12	-2.344		-0.309
	80291	1	13	-3.668		-0.462
	80291	1	14	-2.959		-0.377
	80291	1	15	-1.674		-0.210
	80292	0	0	1.200		0.146
	80292	0	1	0.487		0.053
	80292	0	2	2.424		0.298
	80292	0	3	2.198		0.267
	80292	0	4	0.758		0.087
	80292	0	5	1.868		0.225
	80292	0	6	2.510		0.311
	80292	0	7	2.546		0.305
	80292	0	8	-4.622		-0.603
	80292	0	9	-5.081		-0.666
	80292	0	10	-6.060		-0.768
	80292	0	11	-5.335		-0.686
	80292	0	12	-5.066		-0.639
	80292	0	13	-5.419		-0.687
	80292	0	14	-8.189		-1.022
	80292	0	15	-5.331		-0.672
	80292	1	0	-0.003		-0.003
	80292	1	1	1.495		0.183
	80292	1	2	-0.179		-0.036
	80292	1	3	0.622		0.072
	80292	1	4	0.172		0.019
	80292	1	5	1.993		0.242
	80292	1	6	0.444		0.048
	80292	1	7	0.607		0.068
	80292	1	8	-4.027		-0.523
	80292	1	9	-2.374		-0.303
	80292	1	10	17.877		2.225
	80292	1	11	-1.789		-0.221
	80292	1	12	-2.344		-0.309
	80292	1	13	-3.668		-0.462
	80292	1	14	-2.959		-0.377
	80292	1	15	-1.674		-0.210
	80293	0	0	1.200		0.146
	80293	0	1	0.487		0.053
	80293	0	2	2.424		0.298
	80293	0	3	2.198		0.267
	80293	0	4	0.758		0.087
	80293	0	5	1.868		0.225
	80293	0	6	2.510		0.311
	80293	0	7	2.546		0.305
	80293	0	8	-4.622		-0.603
	80293	0	9	-5.081		-0.666
	80293	0	10	-6.060		-0.768
	80293	0	11	-5.335		-0.686
	80293	0	12	-5.066		-0.639
	80293	0	13	-5.419		-0.687
	80293	0	14	-8.189		-1.022
	80293	0	15	-5.331		-0.672
	80293	1	0	-0.003		-0.003
	80293	1	1	1.495		0.183
	80293	1	2	-0.179		-0.036
	80293	1	3	0.622		0.072
	80293	1	4	0.172		0.019
	80293	1	5	1.993		0.242
	80293	1	6	0.444		0.048
	80293	1	7	0.607		0.068
	80293	1	8	-4.027		-0.523
	80293	1	9	-2.374		-0.303
	80293	1	10	17.877		2.225
	80293	1	11	-1.789		-0.221
	80293	1	12	-2.344		-0.309
	80293	1	13	-3.668		-0.462
	80293	1	14	-2.959		-0.377
	80293	1	15	-1.674		-0.210
	80294	0	0	1.200		0.146
	80294	0	1	0.487		0.053
	80294	0	2	2.424		0.298
	80294	0	3	2.198		0.267
	80294	0	4	0.758		0.087
	80294	0	5	1.868		0.225
	80294	0	6	2.510		0.311
	80294	0	7	2.546		0.305
	80294	0	8	-4.622		-0.603
	80294	0	9	-5.081		-0.666
	80294	0	10	-6.060		-0.768
	80294	0	11	-5.335		-0.686
	80294	0	12	-5.066		-0.639
	80294	0	13	-5.419		-0.687
	80294	0	14	-8.189		-1.022
	80294	0	15	-5.331		-0.672
	80294	1	0	-0.003		-0.003
	80294	1	1	1.495		0.183
	80294	1	2	-0.179		-0.036
	80294	1	3	0.622		0.072
	80294	1	4	0.172		0.019
	80294	1	5	1.993		0.242
	80294	1	6	0.444		0.048
	80294	1	7	0.607		0.068
	80294	1	8	-4.027		-0.523
	80294	1	9	-2.374		-0.303
	80294	1	10	17.877		2.225
	80294	1	11	-1.789		-0.221
	80294	1	12	-2.344		-0.309
	80294	1	13	-3.668		-0.462
	80294	1	14	-2.959		-0.377
	80294	1	15	-1.674		-0.210
	80295	0	0	1.200		0.146
	80295	0	1	0.487		0.053
	80295	0	2	2.424		0.298
	80295	0	3	2.198		0.267
	80295	0	4	0.758		0.087
	80295	0	5	1.868		0.225
	80295	0	6	2.510		0.311
	80295	0	7	2.546		0.305
	80295	0	8	-4.622		-0.603
	80295	0	9	-5.081		-0.666
	80295	0	10	-6.060		-0.768
	80295	0	11	-5.335		-0.686
	80295	0	12	-5.066		-0.639
	80295	0	13	-5.419		-0.687
	80295	0	14	-8.189		-1.022
	80295	0	15	-5.331		-0.672
	80295	1	0	-0.003		-0.003
	80295	1	1	1.495		0.183
	80295	1	2	-0.179		-0.036
	80295	1	3	0.622		0.072
	80295	1	4	0.172		0.019
	80295	1	5	1.993		0.242
	80295	1	6	0.444		0.048
	80295	1	7	0.607		0.068
	80295	1	8	-4.027		-0.523
	80295	1	9	-2.374		-0.303
	80295	1	10	17.877		2.225
	80295	1	11	-1.789		-0.221
	80295	1	12	-2.344		-0.309
	80295	1	13	-3.668		-0.462
	80295	1	14	-2.959		-0.377
	80295	1	15	-1.674		-0.210
	80296	0	0	1.200		0.146
	80296	0	1	0.487		0.053
	80296	0	2	2.424		0.298
	80296	0	3	2.198		0.267
	80296	0	4	0.758		0.087
	80296	0	5	1.868		0.225
	80296	0	6	2.510		0.311
	80296	0	7	2.546		0.305
	80296	0	8	-4.622		-0.603
	80296	0	9	-5.081		-0.666
	80296	0	10	-6.060		-0.768
	80296	0	11	-5.335		-0.686
	80296	0	12	-5.066		-0.639
	80296	0	13	-5.419		-0.687
	80296	0	14	-8.189		-1.022
	80296	0	15	-5.331		-0.672
	80296	1	0	-0.003		-0.003
	80296	1	1	1.495		0.183
	80296	1	2	-0.179		-0.036
	80296	1	3	0.622		0.072
	80296	1	4	0.172		0.019
	80296	1	5	1.993		0.242
	80296	1	6	0.444		0.048
	80296	1	7	0.607		0.068
	80296	1	8	-4.027		-0.523
	80296	1	9	-2.374		-0.303
	80296	1	10	17.877		2.225
	80296	1	11	-1.789		-0.221
	80296	1	12	-2.344		-0.309
	80296	1	13	-3.668		-0.462
	80296	1	14	-2.959		-0.377
	80296	1	15	-1.674		-0.210
	80297	0	0	1.200		0.146
	80297	0	1	0.487		0.053
	80297	0	2	2.424		0.298
	80297	0	3	2.198		0.267
	80297	0	4	0.758		0.087
	80297	0	5	1.868		0.225
	80297	0	6	2.510		0.311
	80297	0	7	2.546		0.305
	80297	0	8	-4.622		-0.603
	80297	0	9	-5.081		-0.666
	80297	0	10	-6.060		-0.768
	80297	0	11	-5.335		-0.686
	80297	0	12	-5.066		-0.639
	80297	0	13	-5.419		-0.687
	80297	0	14	-8.189		-1.022
	80297	0	15	-5.331		-0.672
	80297	1	0	-0.003		-0.003
	80297	1	1	1.495		0.183
	80297	1	2	-0.179		-0.036
	80297	1	3	0.622		0.072
	80297	1	4	0.172		0.019
	80297	1	5	1.993		0.242
	80297	1	6	0.444		0.048
	80297	1	7	0.607		0.068
	80297	1	8	-4.027		-0.523
	80297	1	9	-2.374		-0.303
	80297	1	10	17.877		2.225
	80297	1	11	-1.789		-0.221
	80297	1	12	-2.344		-0.309
	80297	1	13	-3.668		-0.462
	80297	1	14	-2.959		-0.377
	80297	1	15	-1.674		-0.210
	80298	0	0	1.200		0.146
	80298	0	1	0.487		0.053
	80298	0	2	2.424		0.298
	80298	0	3	2.198		0.267
	80298	0	4	0.758		0.087
	80298	0	5	1.868		0.225
	80298	0	6	2.510		0.311
	80298	0	7	2.546		0.305
	80298	0	8	-4.622		-0.603
	80298	0	9	-5.081		-0.666
	80298	0	10	-6.060		-0.768
	80298	0	11	-5.335		-0.686
	80298	0	12	-5.066		-0.639
	80298	0	13	-5.419		-0.687
	80298	0	14	-8.189		-1.022
	80298	0	15	-5.331		-0.672
	80298	1	0	-0.003		-0.003
	80298	1	1	1.495		0.183
	80298	1	2	-0.179		-0.036
	80298	1	3	0.622		0.072
	80298	1	4	0.172		0.019
	80298	1	5	1.993		0.242
	80298	1	6	0.444		0.048
	80298	1	7	0.607		0.068
	80298	1	8	-4.027		-0.523
	80298	1	9	-2.374		-0.303
	80298	1	10	17.877		2.225
	80298	1	11	-1.789		-0.221
	80298	1	12	-2.344		-0.309
	80298	1	13	-3.668		-0.462
	80298	1	14	-2.959		-0.377
	80298	1	15	-1.674		-0.210
	80299	0	0	1.200		0.146
	80299	0	1	0.487		0.053
	80299	0	2	2.424		0.298
	80299	0	3	2.198		0.267
	80299	0	4	0.758		0.087
	80299	0	5	1.868		0.225
	80299	0	6	2.510		0.311
	80299	0	7	2.546		0.305
	80299	0	8	-4.622		-0.603
	80299	0	9	-5.081		-0.666
	80299	0	10	-6.060		-0.768
	80299	0	11	-5.335		-0.686
	80299	0	12	-5.066		-0.639
	80299	0	13	-5.419		-0.687
	80299	0	14	-8.189		-1.022
	80299	0	15	-5.331		-0.672
	80299	1	0	-0.003		-0.003
	80299	1	1	1.495		0.183
	80299	1	2	-0.179		-0.036
	80299	1	3	0.622		0.072
	80299	1	4	0.172		0.019
	80299	1	5	1.993		0.242
	80299	1	6	0.444		0.048
	80299	1	7	0.607		0.068
	80299	1	8	-4.027		-0.523
	80299	1	9	-2.374		-0.303
	80299	1	10	17.877		2.225
	80299	1	11	-1.789		-0.221
	80299	1	12	-2.344		-0.309
	80299	1	13	-3.668		-0.462
	80299	1	14	-2.959		-0.377
	80299	1	15	-1.674		-0.210
	80300	0	0	1.200		0.146
	80300	0	1	0.487		0.053
	80300	0	2	2.424		0.298
	80300	0	3	2.198		0.267
	80300	0	4	0.758		0.087
	80300	0	5	1.868		0.225
	80300	0	6	2.510		0.311
	80300	0	7	2.546		0.305
	80300	0	8	-4.622		-0.603
	80300	0	9	-5.081		-0.666
	80300	0	10	-6.060		-0.768
	80300	0	11	-5.335		-0.686
	80300	0	12	-5.066		-0.639
	80300	0	13	-5.419		-0.687
	80300	0	14	-8.189		-1.022
	80300	0	15	-5.331		-0.672
	80300	1	0	-0.003		-0.003
	80300	1	1	1.495		0.183
	80300	1	2	-0.179		-0.036
	80300	1	3	0.622		0.072
	80300	1	4	0.172		0.019
	80300	1	5	1.993		0.242
	80300	1	6	0.444		0.048
	80300	1	7	0.607		0.068
	80300	1	8	-4.027		-0.523
	80300	1	9	-2.374		-0.303
	80300	1	10	17.877		2.225
	80300	1	11	-1.789		-0.221
	80300	1	12	-2.344		-0.309
	80300	1	13	-3.668		-0.462
	80300	1	14	-2.959		-0.377
	80300	1	15	-1.674		-0.210
	80301	0	0	1.200		0.146
	80301	0	1	0.487		0.053
	80301	0	2	2.424		0.298
	80301	0	3	2.198		0.267
	80301	0	4	0.758		0.087
	80301	0	5	1.868		0.225
	80301	0	6	2.510		0.311
	80301	0	7	2.546		0.305
	80301	0	8	-4.622		-0.603
	80301	0	9	-5.081		-0.666
	80301	0	10	-6.060		-0.768
	80301	0	11	-5.335		-0.686
	80301	0	12	-5.066		-0.639
	80301	0	13	-5.419		-0.687
	80301	0	14	-8.189		-1.022
	80301	0	15	-5.331		-0.672
	80301	1	0	-0.003		-0.003
	80301	1	1	1.495		0.183
	80301	1	2	-0.179		-0.036
	80301	1	3	0.622		0.072
	80301	1	4	0.172		0.019
	80301	1	5	1.993		0.242
	80301	1	6	0.444		0.048
	80301	1	7	0.607		0.068
	80301	1	8	-4.027		-0.523
	80301	1	9	-2.374		-0.303
	80301	1	10	17.877		2.225
	80301	1	11	-1.789		-0.221
	80301	1	12	-2.344		-0.309
	80301	1	13	-3.668		-0.462
	80301	1	14	-2.959		-0.377
	80301	1	15	-1.674		-0.210
	80302	0	0	1.200		0.146
	80302	0	1	0.487		0.053
	80302	0	2	2.424		0.298
	80302	0	3	2.198		0.267
	80302	0	4	0.758		0.087
	80302	0	5	1.868		0.225
	80302	0	6	2.510		0.311
	80302	0	7	2.546		0.305
	80302	0	8	-4.622		-0.603
	80302	0	9	-5.081		-0.666
	80302	0	10	-6.060		-0.768
	80302	0	11	-5.335		-0.686
	80302	0	12	-5.066		-0.639
	80302	0	13	-5.419		-0.687
	80302	0	14	-8.189		-1.022
	80302	0	15	-5.331		-0.672
	80302	1	0	-0.003		-0.003
	80302	1	1	1.495		0.183
	80302	1	2	-0.179		-0.036
	80302	1	3	0.622		0.072
	80302	1	4	0.172		0.019
	80302	1	5	1.993		0.242
	80302	1	6	0.444		0.048
	80302	1	7	0.607		0.068
	80302	1	8	-4.027		-0.523
	80302	1	9	-2.374		-0.303
	80302	1	10	17.877		2.225
	80302	1	11	-1.789		-0.221
	80302	1	12	-2.344		-0.309
	80302	1	13	-3.668		-0.462
	80302	1	14	-2.959		-0.377
	80302	1	15	-1.674		-0.210
	80303	0	0	1.200		0.146
	80303	0	1	0.487		0.053
	80303	0	2	2.424		0.298
	80303	0	3	2.198		0.267
	80303	0	4	0.758		0.087
	80303	0	5	1.868		0.225
	80303	0	6	2.510		0.311
	80303	0	7	2.546		0.305
	80303	0	8	-4.622		-0.603
	80303	0	9	-5.081		-0.666
	80303	0	10	-6.060		-0.768
	80303	0	11	-5.335		-0.686
	80303	0	12	-5.066		-0.639
	80303	0	13	-5.419		-0.687
	80303	0	14	-8.189		-1.022
	80303	0	15	-5.331		-0.672
	80303	1	0	-0.003		-0.003
	80303	1	1	1.495		0.183
	80303	1	2	-0.179		-0.036
	80303	1	3	0.622		0.072
	80303	1	4	0.172		0.019
	80303	1	5	1.993		0.242
	80303	1	6	0.444		0.048
	80303	1	7	0.607		0.068
	80303	1	8	-4.027		-0.523
	80303	1	9	-2.374		-0.303
	80303	1	10	17.877		2.225
	80303	1	11	-1.789		-0.221
	80303	1	12	-2.344		-0.309
	80303	1	13	-3.668		-0.462
	80303	1	14	-2.959		-0.377
	80303	1	15	-1.674		-0.210
	80304	0	0	1.200		0.146
	80304	0	1	0.487		0.053
	80304	0	2	2.424		0.298
	80304	0	3	2.198		0.267
	80304	0	4	0.758		0.087
	80304	0	5	1.868		0.225
	80304	0	6	2.510		0.311
	80304	0	7	2.546		0.305
	80304	0	8	-4.622		-0.603
	80304	0	9	-5.081		-0.666
	80304	0	10	-6.060		-0.768
	80304	0	11	-5.335		-0.686
	80304	0	12	-5.066		-0.639
	80304	0	13	-5.419		-0.687
	80304	0	14	-8.189		-1.022
	80304	0	15	-5.331		-0.672
	80304	1	0	-0.003		-0.003
	80304	1	1	1.495		0.183
	80304	1	2	-0.179		-0.036
	80304	1	3	0.622		0.072
	80304	1	4	0.172		0.019
	80304	1	5	1.993		0.242
	80304	1	6	0.444		0.048
	80304	1	7	0.607		0.068
	80304	1	8	-4.027		-0.523
	80304	1	9	-2.374		-0.303
	80304	1	10	17.877		2.225
	80304	1	11	-1.789		-0.221
	80304	1	12	-2.344		-0.309
	80304	1	13	-3.668		-0.462
	80304	1	14	-2.959		-0.377
	80304	1	15	-1.674		-0.210
	80305	0	0	1.200		0.146
	80305	0	1	0.487		0.053
	80305	0	2	2.424		0.298
	80305	0	3	2.198		0.267
	80305	0	4	0.758		0.087
	80305	0	5	1.868		0.225
	80305	0	6	2.510		0.311
	80305	0	7	2.546		0.305
	80305	0	8	-4.622		-0.603
	80305	0	9	-5.081		-0.666
	80305	0	10	-6.060		-0.768
	80305	0	11	-5.335		-0.686
	80305	0	12	-5.066		-0.639
	80305	0	13	-5.419		-0.687
	80305	0	14	-8.189		-1.022
	80305	0	15	-5.331		-0.672
	80305	1	0	-0.003		-0.003
	80305	1	1	1.495		0.183
	80305	1	2	-0.179		-0.036
	80305	1	3	0.622		0.072
	80305	1	4	0.172		0.019
	80305	1	5	1.993		0.242
	80305	1	6	0.444		0.048
	80305	1	7	0.607		0.068
	80305	1	8	-4.027		-0.523
	80305	1	9	-2.374		-0.303
	80305	1	10	17.877		2.225
	80305	1	11	-1.789		-0.221
	80305	1	12	-2.344		-0.309
	80305	1	13	-3.668		-0.462
	80305	1	14	-2.959		-0.377
	80305	1	15	-1.674		-0.210
	80306	0	0	1.200		0.146
	80306	0	1	0.487		0.053
	80306	0	2	2.424		0.298
	80306	0	3	2.198		0.267
	80306	0	4	0.758		0.087
	80306	0	5	1.868		0.225
	80306	0	6	2.510		0.311
	80306	0	7	2.546		0.305
	80306	0	8	-4.622		-0.603
	80306	0	9	-5.081		-0.666
	80306	0	10	-6.060		-0.768
	80306	0	11	-5.335		-0.686
	80306	0	12	-5.066		-0.639
	80306	0	13	-5.419		-0.687
	80306	0	14	-8.189		-1.022
	80306	0	15	-5.331		-0.672
	80306	1	0	-0.003		-0.003
	80306	1	1	1.495		0.183
	80306	1	2	-0.179		-0.036
	80306	1	3	0.622		0.072
	80306	1	4	0.172		0.019
	80306	1	5	1.993		0.242
	80306	1	6	0.444		0.048
	80306	1	7	0.607		0.068
	80306	1	8	-4.027		-0.523
	80306	1	9	-2.374		-0.303
	80306	1	10	17.877		2.225
	80306	1	11	-1.789		-0.221
	80306	1	12	-2.344		-0.309
	80306	1	13	-3.668		-0.462
	80306	1	14	-2.959		-0.377
	80306	1	15	-1.674		-0.210
	80307	0	0	1.200		0.146
	80307	0	1	0.487		0.053
	80307	0	2	2.424		0.298
	80307	0	3	2.198		0.267
	80307	0	4	0.758		0.087
	80307	0	5	1.868		0.225
	80307	0	6	2.510		0.311
	80307	0	7	2.546		0.305
	80307	0	8	-4.622		-0.603
	80307	0	9	-5.081		-0.666
	80307	0	10	-6.060		-0.768
	80307	0	11	-5.335		-0.686
	80307	0	12	-5.066		-0.639
	80307	0	13	-5.419		-0.687
	80307	0	14	-8.189		-1.022
	80307	0	15	-5.331		-0.672
	80307	1	0	-0.003		-0.003
	80307	1	1	1.495		0.183
	80307	1	2	-0.179		-0.036
	80307	1	3	0.622		0.072
	80307	1	4	0.172		0.019
	80307	1	5	1.993		0.242
	80307	1	6	0.444		0.048
	80307	1	7	0.607		0.068
	80307	1	8	-4.027		-0.523
	80307	1	9	-2.374		-0.303
	80307	1	10	17.877		2.225
	80307	1	11	-1.789		-0.221
	80307	1	12	-2.344		-0.309
	80307	1	13	-3.668		-0.462
	80307	1	14	-2.959		-0.377
	80307	1	15	-1.674		-0.210
	80308	0	0	1.200		0.146
	80308	0	1	0.487		0.053
	80308	0	2	2.424		0.298
	80308	0	3	2.198		0.267
	80308	0	4	0.758		0.087
	80308	0	5	1.868		0.225
	80308	0	6	2.510		0.311
	80308	0	7	2.546		0.305
	80308	0	8	-4.622		-0.603
	80308	0	9	-5.081		-0.666
	80308	0	10	-6.060		-0.768
	80308	0	11	-5.335		-0.686
	80308	0	12	-5.066		-0.639
	80308	0	13	-5.419		-0.687
	80308	0	14	-8.189		-1.022
	80308	0	15	-5.331		-0.672
	80308	1	0	-0.003		-0.003
	80308	1	1	1.495		0.183
	80308	1	2	-0.179		-0.036
	80308	1	3	0.622		0.072
	80308	1	4	0.172		0.019
	80308	1	5	1.993		0.242
	80308	1	6	0.444		0.048
	80308	1	7	0.607		0.068
	80308	1	8	-4.027		-0.523
	80308	1	9	-2.374		-0.303
	80308	1	10	17.877		2.225
	80308	1	11	-1.789		-0.221
	80308	1	12	-2.344		-0.309
	80308	1	13	-3.668		-0.462
	80308	1	14	-2.959		-0.377
	80308	1	15	-1.674		-0.210
	80309	0	0	1.200		0.146
	80309	0	1	0.487		0.053
	80309	0	2	2.424		0.298
	80309	0	3	2.198		0.267
	80309	0	4	0.758		0.087
	80309	0	5	1.868		0.225
	80309	0	6	2.510		0.311
	80309	0	7	2.546		0.305
	80309	0	8	-4.622		-0.603
	80309	0	9	-5.081		-0.666
	80309	0	10	-6.060		-0.768
	80309	0	11	-5.335		-0.686
	80309	0	12	-5.066		-0.639
	80309	0	13	-5.419		-0.687
	80309	0	14	-8.189		-1.022
	80309	0	15	-5.331		-0.672
	80309	1	0	-0.003		-0.003
	80309	1	1	1.495		0.183
	80309	1	2	-0.179		-0.036
	80309	1	3	0.622		0.072
	80309	1	4	0.172		0.019
	80309	1	5	1.993		0.242
	80309	1	6	0.444		0.048
	80309	1	7	0.607		0.068
	80309	1	8	-4.027		-0.523
	80309	1	9	-2.374		-0.303
	80309	1	10	17.877		2.225
	80309	1	11	-1.789		-0.221
	80309	1	12	-2.344		-0.309
	80309	1	13	-3.668		-0.462
	80309	1	14	-2.959		-0.377
	80309	1	15	-1.674		-0.210
	80310	0	0	1.200		0.146
	80310	0	1	0.487		0.053
	80310	0	2	2.424		0.298
	80310	0	3	2.198		0.267
	80310	0	4	0.758		0.087
	80310	0	5	1.868		0.225
	80310	0	6	2.510		0.311
	80310	0	7	2.546		0.305
	80310	0	8	-4.622		-0.603
	80310	0	9	-5.081		-0.666
	80310	0	10	-6.060		-0.768
	80310	0	11	-5.335		-0.686
	80310	0	12	-5.066		-0.639
	80310	0	13	-5.419		-0.687
	80310	0	14	-8.189		-1.022
	80310	0	15	-5.331		-0.672
	80310	1	0	-0.003		-0.003
	80310	1	1	1.495		0.183
	80310	1	2	-0.179		-0.036
	80310	1	3	0.622		0.072
	80310	1	4	0.172		0.019
	80310	1	5	1.993		0.242
	80310	1	6	0.444		0.048
	80310	1	7	0.607		0.068
	80310	1	8	-4.027		-0.523
	80310	1	9	-2.374		-0.303
	80310	1	10	17.877		2.225
	80310	1	11	-1.789		-0.221
	80310	1	12	-2.344		-0.309
	80310	1	13	-3.668		-0.462
	80310	1	14	-2.959		-0.377
	80310	1	15	-1.674		-0.210
	80311	0	0	1.200		0.146
	80311	0	1	0.487		0.053
	80311	0	2	2.424		0.298
	80311	0	3	2.198		0.267
	80311	0	4	0.758		0.087
	80311	0	5	1.868		0.225
	80311	0	6	2.510		0.311
	80311	0	7	2.546		0.305
	80311	0	8	-4.622		-0.603
	80311	0	9	-5.081		-0.666
	80311	0	10	-6.060		-0.768
	80311	0	11	-5.335		-0.686
	80311	0	12	-5.066		-0.639
	80311	0	13	-5.419		-0.687
	80311	0	14	-8.189		-1.022
	80311	0	15	-5.331		-0.672
	80311	1	0	-0.003		-0.003
	80311	1	1	1.495		0.183
	80311	1	2	-0.179		-0.036
	80311	1	3	0.622		0.072
	80311	1	4	0.172		0.019
	80311	1	5	1.993		0.242
	80311	1	6	0.444		0.048
	80311	1	7	0.607		0.068
	80311	1	8	-4.027		-0.523
	80311	1	9	-2.374		-0.303
	80311	1	10	17.877		2.225
	80311	1	11	-1.789		-0.221
	80311	1	12	-2.344		-0.309
	80311	1	13	-3.668		-0.462
	80311	1	14	-2.959		-0.377
	80311	1	15	-1.674		-0.210
	80312	0	0	1.200		0.146
	80312	0	1	0.487		0.053
	80312	0	2	2.424		0.298
	80312	0	3	2.198		0.267
	80312	0	4	0.758		0.087
	80312	0	5	1.868		0.225
	80312	0	6	2.510		0.311
	80312	0	7	2.546		0.305
	80312	0	8	-4.622		-0.603
	80312	0	9	-5.081		-0.666
	80312	0	10	-6.060		-0.768
	80312	0	11	-5.335		-0.686
	80312	0	12	-5.066		-0.639
	80312	0	13	-5.419		-0.687
	80312	0	14	-8.189		-1.022
	80312	0	15	-5.331		-0.672
	80312	1	0	-0.003		-0.003
	80312	1	1	1.495		0.183
	80312	1	2	-0.179		-0.036
	80312	1	3	0.622		0.072
	80312	1	4	0.172		0.019
	80312	1	5	1.993		0.242
	80312	1	6	0.444		0.048
	80312	1	7	0.607		0.068
	80312	1	8	-4.027		-0.523
	80312	1	9	-2.374		-0.303
	80312	1	10	17.877		2.225
	80312	1	11	-1.789		-0.221
	80312	1	12	-2.344		-0.309
	80312	1	13	-3.668		-0.462
	80312	1	14	-2.959		-0.377
	80312	1	15	-1.674		-0.210
	80313	0	0	1.200		0.146
	80313	0	1	0.487		0.053
	80313	0	2	2.424		0.298
	80313	0	3	2.198		0.267
	80313	0	4	0.758		0.087
	80313	0	5	1.868		0.225
	80313	0	6	2.510		0.311
	80313	0	7	2.546		0.305
	80313	0	8	-4.622		-0.603
	80313	0	9	-5.081		-0.666
	80313	0	10	-6.060		-0.768
	80313	0	11	-5.335		-0.686
	80313	0	12	-5.066		-0.639
	80313	0	13	-5.419		-0.687
	80313	0	14	-8.189		-1.022
	80313	0	15	-5.331		-0.672
	80313	1	0	-0.003		-0.003
	80313	1	1	1.495		0.183
	80313	1	2	-0.179		-0.036
	80313	1	3	0.622		0.072
	80313	1	4	0.172		0.019
	80313	1	5	1.993		0.242
	80313	1	6	0.444		0.048
	80313	1	7	0.607		0.068
	80313	1	8	-4.027		-0.523
	80313	1	9	-2.374		-0.303
	80313	1	10	17.877		2.225
	80313	1	11	-1.789		-0.221
	80313	1	12	-2.344		-0.309
	80313	1	13	-3.668		-0.462
	80313	1	14	-2.959		-0.377
	80313	1	15	-1.674		-0.210
	80314	0	0	1.200		0.146
	80314	0	1	0.487		0.053
	80314	0	2	2.424		0.298
	80314	0	3	2.198		0.267
	80314	0	4	0.758		0.087
	80314	0	5	1.868		0.225
	80314	0	6	2.510		0.311
	80314	0	7	2.546		0.305
	80314	0	8	-4.622		-0.603
	80314	0	9	-5.081		-0.666
	80314	0	10	-6.060		-0.768
	80314	0	11	-5.335		-0.686
	80314	0	12	-5.066		-0.639
	80314	0	13	-5.419		-0.687
	80314	0	14	-8.189		-1.022
	80314	0	15	-5.331		-0.672
	80314	1	0	-0.003		-0.003
	80314	1	1	1.495		0.183
	80314	1	2	-0.179		-0.036
	80314	1	3	0.622		0.072
	80314	1	4	0.172		0.019
	80314	1	5	1.993		0.242
	80314	1	6	0.444		0.048
	80314	1	7	0.607		0.068
	80314	1	8	-4.027		-0.523
	80314	1	9	-2.374		-0.303
	80314	1	10	17.877		2.225
	80314	1	11	-1.789		-0.221
	80314	1	12	-2.344		-0.309
	80314	1	13	-3.668		-0.462
	80314	1	14	-2.959		-0.377
	80314	1	15	-1.674		-0.210
	80315	0	0	1.200		0.146
	80315	0	1	0.487		0.053
	80315	0	2	2.424		0.298
	80315	0	3	2.198		0.267
	80315	0	4	0.758		0.087
	80315	0	5	1.868		0.225
	80315	0	6	2.510		0.311
	80315	0	7	2.546		0.305
	80315	0	8	-4.622		-0.603
	80315	0	9	-5.081		-0.666
	80315	0	10	-6.060		-0.768
	80315	0	11	-5.335		-0.686
	80315	0	12	-5.066		-0.639
	80315	0	13	-5.419		-0.687
	80315	0	14	-8.189		-1.022
	80315	0	15	-5.331		-0.672
	80315	1	0	-0.003		-0.003
	80315	1	1	1.495		0.183
	80315	1	2	-0.179		-0.036
	80315	1	3	0.622		0.072
	80315	1	4	0.172		0.019
	80315	1	5	1.993		0.242
	80315	1	6	0.444		0.048
	80315	1	7	0.607		0.068
	80315	1	8	-4.027		-0.523
	80315	1	9	-2.374		-0.303
	80315	1	10	17.877		2.225
	80315	1	11	-1.789		-0.221
	80315	1	12	-2.344		-0.309
	80315	1	13	-3.668		-0.462
	80315	1	14	-2.959		-0.377
	80315	1	15	-1.674		-0.210
	80316	0	0	1.200		0.146
	80316	0	1	0.487		0.053
	80316	0	2	2.424		0.298
	80316	0	3	2.198		0.267
	80316	0	4	0.758		0.087
	80316	0	5	1.868		0.225
	80316	0	6	2.510		0.311
	80316	0	7	2.546		0.305
	80316	0	8	-4.622		-0.603
	80316	0	9	-5.081		-0.666
	80316	0	10	-6.060		-0.768
	80316	0	11	-5.335		-0.686
	80316	0	12	-5.066		-0.639
	80316	0	13	-5.419		-0.687
	80316	0	14	-8.189		-1.022
	80316	0	15	-5.331		-0.672
	80316	1	0	-0.003		-0.003
	80316	1	1	1.495		0.183
	80316	1	2	-0.179		-0.036
	80316	1	3	0.622		0.072
	80316	1	4	0.172		0.019
	80316	1	5	1.993		0.242
	80316	1	6	0.444		0.048
	80316	1	7	0.607		0.068
	80316	1	8	-4.027		-0.523
	80316	1	9	-2.374		-0.303
	80316	1	10	17.877		2.225
	80316	1	11	-1.789		-0.221
	80316	1	12	-2.344		-0.309
	80316	1	13	-3.668		-0.462
	80316	1	14	-2.959		-0.377
	80316	1	15	-1.674		-0.210
	80317	0	0	1.200		0.146
	80317	0	1	0.487		0.053
	80317	0	2	2.424		0.298
	80317	0	3	2.198		0.267
	80317	0	4	0.758		0.087
	80317	0	5	1.868		0.225
	80317	0	6	2.510		0.311
	80317	0	7	2.546		0.305
	80317	0	8	-4.622		-0.603
	80317	0	9	-5.081		-0.666
	80317	0	10	-6.060		-0.768
	80317	0	11	-5.335		-0.686
	80317	0	12	-5.066		-0.639
	80317	0	13	-5.419		-0.687
	80317	0	14	-8.189		-1.022
	80317	0	15	-5.331		-0.672
	80317	1	0	-0.003		-0.003
	80317	1	1	1.495		0.183
	80317	1	2	-0.179		-0.036
	80317	1	3	0.622		0.072
	80317	1	4	0.172		0.019
	80317	1	5	1.993		0.242
	80317	1	6	0.444		0.048
	80317	1	7	0.607		0.068
	80317	1	8	-4.027		-0.523
	80317	1	9	-2.374		-0.303
	80317	1	10	17.877		2.225
	80317	1	11	-1.789		-0.221
	80317	1	12	-2.344		-0.309
	80317	1	13	-3.668		-0.462
	80317	1	14	-2.959		-0.377
	80317	1	15	-1.674		-0.210
	80318	0	0	1.200		0.146
	80318	0	1	0.487		0.053
	80318	0	2	2.424		0.298
	80318	0	3	2.198		0.267
	80318	0	4	0.758		0.087
	80318	0	5	1.868		0.225
	80318	0	6	2.510		0.311
	80318	0	7	2.546		0.305
	80318	0	8	-4.622		-0.603
	80318	0	9	-5.081		-0.666
	80318	0	10	-6.060		-0.768
	80318	0	11	-5.335		-0.686
	80318	0	12	-5.066		-0.639
	80318	0	13	-5.419		-0.687
	80318	0	14	-8.189		-1.022
	80318	0	15	-5.331		-0.672
	80318	1	0	-0.003		-0.003
	80318	1	1	1.495		0.183
	80318	1	2	-0.179		-0.036
	80318	1	3	0.622		0.072
	80318	1	4	0.172		0.019
	80318	1	5	1.993		0.242
	80318	1	6	0.444		0.048
	80318	1	7	0.607		0.068
	80318	1	8	-4.027		-0.523
	80318	1	9	-2.374		-0.303
	80318	1	10	17.877		2.225
	80318	1	11	-1.789		-0.221
	80318	1	12	-2.344		-0.309
	80318	1	13	-3.668		-0.462
	80318	1	14	-2.959		-0.377
	80318	1	15	-1.674		-0.210
	80319	0	0	1.200		0.146
	80319	0	1	0.487		0.053
	80319	0	2	2.424		0.298
	80319	0	3	2.198		0.267
	80319	0	4	0.758		0.087
	80319	0	5	1.868		0.225
	80319	0	6	2.510		0.311
	80319	0	7	2.546		0.305
	80319	0	8	-4.622		-0.603
	80319	0	9	-5.081		-0.666
	80319	0	10	-6.060		-0.768
	80319	0	11	-5.335		-0.686
	80319	0	12	-5.066		-0.639
	80319	0	13	-5.419		-0.687
	80319	0	14	-8.189		-1.022
	80319	0	15	-5.331		-0.672
	80319	1	0	-0.003		-0.003
	80319	1	1	1.495		0.183
	80319	1	2	-0.179		-0.036
	80319	1	3	0.622		0.072
	80319	1	4	0.172		0.019
	80319	1	5	1.993		0.242
	80319	1	6	0.444		0.048
	80319	1	7	0.607		0.068
	80319	1	8	-4.027		-0.523
	80319	1	9	-2.374		-0.303
	80319	1	10	17.877		2.225
	80319	1	11	-1.789		-0.221
	80319	1	12	-2.344		-0.309
	80319	1	13	-3.668		-0.462
	80319	1	14	-2.959		-0.377
	80319	1	15	-1.674		-0.210
	80320	0	0	1.200		0.146
	80320	0	1	0.487		0.053
	80320	0	2	2.424		0.298
	80320	0	3	2.198		0.267
	80320	0	4	0.758		0.087
	80320	0	5	1.868		0.225
	80320	0	6	2.510		0.311
	80320	0	7	2.546		0.305
	80320	0	8	-4.622		-0.603
	80320	0	9	-5.081		-0.666
	80320	0	10	-6.060		-0.768
	80320	0	11	-5.335		-0.686
	80320	0	12	-5.066		-0.639
	80320	0	13	-5.419		-0.687
	80320	0	14	-8.189		-1.022
	80320	0	15	-5.331		-0.672
	80320	1	0	-0.003		-0.003
	80320	1	1	1.495		0.183
	80320	1	2	-0.179		-0.036
	80320	1	3	0.622		0.072
	80320	1	4	0.172		0.019
	80320	1	5	1.993		0.242
	80320	1	6	0.444		0.048
	80320	1	7	0.607		0.068
	80320	1	8	-4.027		-0.523
	80320	1	9	-2.374		-0.303
	80320	1	10	17.877		2.225
	80320	1	11	-1.789		-0.221
	80320	1	12	-2.344		-0.309
	80320	1	13	-3.668		-0.462
	80320	1	14	-2.959		-0.377
	80320	1	15	-1.674		-0.210
	80321	0	0	1.200		0.146
	80321	0	1	0.487		0.053
	80321	0	2	2.424		0.298
	80321	0	3	2.198		0.267
	80321	0	4	0.758		0.087
	80321	0	5	1.868		0.225
	80321	0	6	2.510		0.311
	80321	0	7	2.546		0.305
	80321	0	8	-4.622		-0.603
	80321	0	9	-5.081		-0.666
	80321	0	10	-6.060		-0.768
	80321	0	11	-5.335		-0.686
	80321	0	12	-5.066		-0.639
	80321	0	13	-5.419		-0.687
	80321	0	14	-8.189		-1.022
	80321	0	15	-5.331		-0.672
	80321	1	0	-0.003		-0.003
	80321	1	1	1.495		0.183
	80321	1	2	-0.179		-0.036
	80321	1	3	0.622		0.072
	80321	1	4	0.172		0.019
	80321	1	5	1.993		0.242
	80321	1	6	0.444		0.048
	80321	1	7	0.607		0.068
	80321	1	8	-4.027		-0.523
	80321	1	9	-2.374		-0.303
	80321	1	10	17.877		2.225
	80321	1	11	-1.789		-0.221
	80321	1	12	-2.344		-0.309
	80321	1	13	-3.668		-0.462
	80321	1	14	-2.959		-0.377
	80321	1	15	-1.674		-0.210
	80322	0	0	1.200		0.146
	80322	0	1	0.487		0.053
	80322	0	2	2.424		0.298
	80322	0	3	2.198		0.267
	80322	0	4	0.758		0.087
	80322	0	5	1.868		0.225
	80322	0	6	2.510		0.311
	80322	0	7	2.546		0.305
	80322	0	8	-4.622		-0.603
	80322	0	9	-5.081		-0.666
	80322	0	10	-6.060		-0.768
	80322	0	11	-5.335		-0.686
	80322	0	12	-5.066		-0.639
	80322	0	13	-5.419		-0.687
	80322	0	14	-8.189		-1.022
	80322	0	15	-5.331		-0.672
	80322	1	0	-0.003		-0.003
	80322	1	1	1.495		0.183
	80322	1	2	-0.179		-0.036
	80322	1	3	0.622		0.072
	80322	1	4	0.172		0.019
	80322	1	5	1.993		0.242
	80322	1	6	0.444		0.048
	80322	1	7	0.607		0.068
	80322	1	8	-4.027		-0.523
	80322	1	9	-2.374		-0.303
	80322	1	10	17.877		2.225
	80322	1	11	-1.789		-0.221
	80322	1	12	-2.344		-0.309
	80322	1	13	-3.668		-0.462
	80322	1	14	-2.959		-0.377
	80322	1	15	-1.674		-0.210
	80323	0	0	1.200		0.146
	80323	0	1	0.487		0.053
	80323	0	2	2.424		0.298
	80323	0	3	2.198		0.267
	80323	0	4	0.758		0.087
	80323	0	5	1.868		0.225
	80323	0	6	2.510		0.311
	80323	0	7	2.546		0.305
	80323	0	8	-4.622		-0.603
	80323	0	9	-5.081		-0.666
	80323	0	10	-6.060		-0.768
	80323	0	11	-5.335		-0.686
	80323	0	12	-5.066		-0.639
	80323	0	13	-5.419		-0.687
	80323	0	14	-8.189		-1.022
	80323	0	15	-5.331		-0.672
	80323	1	0	-0.003		-0.003
	80323	1	1	1.495		0.183
	80323	1	2	-0.179		-0.036
	80323	1	3	0.622		0.072
	80323	1	4	0.172		0.019
	80323	1	5	1.993		0.242
	80323	1	6	0.444		0.048
	80323	1	7	0.607		0.068
	80323	1	8	-4.027		-0.523
	80323	1	9	-2.374		-0.303
	80323	1	10	17.877		2.225
	80323	1	11	-1.789		-0.221
	80323	1	12	-2.344		-0.309
	80323	1	13	-3.668		-0.462
	80323	1	14	-2.959		-0.377
	80323	1	15	-1.674		-0.210
	80324	0	0	1.200		0.146
	80324	0	1	0.487		0.053
	80324	0	2	2.424		0.298
	80324	0	3	2.198		0.267
	80324	0	4	0.758		0.087
	80324	0	5	1.868		0.225
	80324	0	6	2.510		0.311
	80324	0	7	2.546		0.305
	80324	0	8	-4.622		-0.603
	80324	0	9	-5.081		-0.666
	80324	0	10	-6.060		-0.768
	80324	0	11	-5.335		-0.686
	80324	0	12	-5.066		-0.639
	80324	0	13	-5.419		-0.687
	80324	0	14	-8.189		-1.022
	80324	0	15	-5.331		-0.672
	80324	1	0	-0.003		-0.003
	80324	1	1	1.495		0.183
	80324	1	2	-0.179		-0.036
	80324	1	3	0.622		0.072
	80324	1	4	0.172		0.019
	80324	1	5	1.993		0.242
	80324	1	6	0.444		0.048
	80324	1	7	0.607		0.068
	80324	1	8	-4.027		-0.523
	80324	1	9	-2.374		-0.303
	80324	1	10	17.877		2.225
	80324	1	11	-1.789		-0.221
	80324	1	12	-2.344		-0.309
	80324	1	13	-3.668		-0.462
	80324	1	14	-2.959		-0.377
	80324	1	15	-1.674		-0.210
	80325	0	0	1.200		0.146
	80325	0	1	0.487		0.053
	80325	0	2	2.424		0.298
	80325	0	3	2.198		0.267
	80325	0	4	0.758		0.087
	80325	0	5	1.868		0.225
	80325	0	6	2.510		0.311
	80325	0	7	2.546		0.305
	80325	0	8	-4.622		-0.603
	80325	0	9	-5.081		-0.666
	80325	0	10	-6.060		-0.768
	80325	0	11	-5.335		-0.686
	80325	0	12	-5.066		-0.639
	80325	0	13	-5.419		-0.687
	80325	0	14	-8.189		-1.022
	80325	0	15	-5.331		-0.672
	80325	1	0	-0.003		-0.003
	80325	1	1	1.495		0.183
	80325	1	2	-0.179		-0.036
	80325	1	3	0.622		0.072
	80325	1	4	0.172		0.019
	80325	1	5	1.993		0.242
	80325	1	6	0.444		0.048
	80325	1	7	0.607		0.068
	80325	1	8	-4.027		-0.523
	80325	1	9	-2.374		-0.303
	80325	1	10	17.877		2.225
	80325	1	11	-1.789		-0.221
	80325	1	12	-2.344		-0.309
	80325	1	13	-3.668		-0.462
	80325	1	14	-2.959		-0.377
	80325	1	15	-1.674		-0.210
	80326	0	0	1.200		0.146
	80326	0	1	0.487		0.053
	80326	0	2	2.424		0.298
	80326	0	3	2.198		0.267
	80326	0	4	0.758		0.087
	80326	0	5	1.868		0.225
	80326	0	6	2.510		0.311
	80326	0	7	2.546		0.305
	80326	0	8	-4.622		-0.603
	80326	0	9	-5.081		-0.666
	80326	0	10	-6.060		-0.768
	80326	0	11	-5.335		-0.686
	80326	0	12	-5.066		-0.639
	80326	0	13	-5.419		-0.687
	80326	0	14	-8.189		-1.022
	80326	0	15	-5.331		-0.672
	80326	1	0	-0.003		-0.003
	80326	1	1	1.495		0.183
	80326	1	2	-0.179		-0.036
	80326	1	3	0.622		0.072
	80326	1	4	0.172		0.019
	80326	1	5	1.993		0.242
	80326	1	6	0.444		0.048
	80326	1	7	0.607		0.068
	80326	1	8	-4.027		-0.523
	80326	1	9	-2.374		-0.303
	80326	1	10	17.877		2.225
	80326	1	11	-1.789		-0.221
	80326	1	12	-2.344		-0.309
	80326	1	13	-3.668		-0.462
	80326	1	14	-2.959		-0.377
	80326	1	15	-1.674		-0.210
	80327	0	0	1.200		0.146
	80327	0	1	0.487		0.053
	80327	0	2	2.424		0.298
	80327	0	3	2.198		0.267
	80327	0	4	0.758		0.087
	80327	0	5	1.868		0.225
	80327	0	6	2.510		0.311
	80327	0	7	2.546		0.305
	80327	0	8	-4.622		-0.603
	80327	0	9	-5.081		-0.666
	80327	0	10	-6.060		-0.768
	80327	0	11	-5.335		-0.686
	80327	0	12	-5.066		-0.639
	80327	0	13	-5.419		-0.687
	80327	0	14	-8.189		-1.022
	80327	0	15	-5.331		-0.672
	80327	1	0	-0.003		-0.003
	80327	1	1	1.495		0.183
	80327	1	2	-0.179		-0.036
	80327	1	3	0.622		0.072
	80327	1	4	0.172		0.019
	80327	1	5	1.993		0.242
	80327	1	6	0.444		0.048
	80327	1	7	0.607		0.068
	80327	1	8	-4.027		-0.523
	80327	1	9	-2.374		-0.303
	80327	1	10	17.877		2.225
	80327	1	11	-1.789		-0.221
	80327	1	12	-2.344		-0.309
	80327	1	13	-3.668		-0.462
	80327	1	14	-2.959		-0.377
	80327	1	15	-1.674		-0.210
	80328	0	0	1.200		0.146
	80328	0	1	0.487		0.053
	80328	0	2	2.424		0.298
	80328	0	3	2.198		0.267
	80328	0	4	0.758		0.087
	80328	0	5	1.868		0.225
	80328	0	6	2.510		0.311
	80328	0	7	2.546		0.305
	80328	0	8	-4.622		-0.603
	80328	0	9	-5.081		-0.666
	80328	0	10	-6.060		-0.768
	80328	0	11	-5.335		-0.686
	80328	0	12	-5.066		-0.639
	80328	0	13	-5.419		-0.687
	80328	0	14	-8.189		-1.022
	80328	0	15	-5.331		-0.672
	80328	1	0	-0.003		-0.003
	80328	1	1	1.495		0.183
	80328	1	2	-0.179		-0.036
	80328	1	3	0.622		0.072
	80328	1	4	0.172		0.019
	80328	1	5	1.993		0.242
	80328	1	6	0.444		0.048
	80328	1	7	0.607		0.068
	80328	1	8	-4.027		-0.523
	80328	1	9	-2.374		-0.303
	80328	1	10	17.877		2.225
	80328	1	11	-1.789		-0.221
	80328	1	12	-2.344		-0.309
	80328	1	13	-3.668		-0.462
	80328	1	14	-2.959		-0.377
	80328	1	15	-1.674		-0.210
	80329	0	0	1.200		0.146
	80329	0	1	0.487		0.053
	80329	0	2	2.424		0.298
	80329	0	3	2.198		0.267
	80329	0	4	0.758		0.087
	80329	0	5	1.868		0.225
	80329	0	6	2.510		0.311
	80329	0	7	2.546		0.305
	80329	0	8	-4.622		-0.603
	80329	0	9	-5.081		-0.666
	80329	0	10	-6.060		-0.768
	80329	0	11	-5.335		-0.686
	80329	0	12	-5.066		-0.639
	80329	0	13	-5.419		-0.687
	80329	0	14	-8.189		-1.022
	80329	0	15	-5.331		-0.672
	80329	1	0	-0.003		-0.003
	80329	1	1	1.495		0.183
	80329	1	2	-0.179		-0.036
	80329	1	3	0.622		0.072
	80329	1	4	0.172		0.019
	80329	1	5	1.993		0.242
	80329	1	6	0.444		0.048
	80329	1	7	0.607		0.068
	80329	1	8	-4.027		-0.523
	80329	1	9	-2.374		-0.303
	80329	1	10	17.877		2.225
	80329	1	11	-1.789		-0.221
	80329	1	12	-2.344		-0.309
	80329	1	13	-3.668		-0.462
	80329	1	14	-2.959		-0.377
	80329	1	15	-1.674		-0.210
	80330	0	0	1.200		0.146
	80330	0	1	0.487		0.053
	80330	0	2	2.424		0.298
	80330	0	3	2.198		0.267
	80330	0	4	0.758		0.087
	80330	0	5	1.868		0.225
	80330	0	6	2.510		0.311
	80330	0	7	2.546		0.305
	80330	0	8	-4.622		-0.603
	80330	0	9	-5.081		-0.666
	80330	0	10	-6.060		-0.768
	80330	0	11	-5.335		-0.686
	80330	0	12	-5.066		-0.639
	80330	0	13	-5.419		-0.687
	80330	0	14	-8.189		-1.022
	80330	0	15	-5.331		-0.672
	80330	1	0	-0.003		-0.003
	80330	1	1	1.495		0.183
	80330	1	2	-0.179		-0.036
	80330	1	3	0.622		0.072
	80330	1	4	0.172		0.019
	80330	1	5	1.993		0.242
	80330	1	6	0.444		0.048
	80330	1	7	0.607		0.068
	80330	1	8	-4.027		-0.523
	80330	1	9	-2.374		-0.303
	80330	1	10	17.877		2.225
	80330	1	11	-1.789		-0.221
	80330	1	12	-2.344		-0.309
	80330	1	13	-3.668		-0.462
	80330	1	14	-2.959		-0.377
	80330	1	15	-1.674		-0.210
	80331	0	0	1.200		0.146
	80331	0	1	0.487		0.053
	80331	0	2	2.424		0.298
	80331	0	3	2.198		0.267
	80331	0	4	0.758		0.087
	80331	0	5	1.868		0.225
	80331	0	6	2.510		0.311
	80331	0	7	2.546		0.305
	80331	0	8	-4.622		-0.603
	80331	0	9	-5.081		-0.666
	80331	0	10	-6.060		-0.768
	80331	0	11	-5.335		-0.686
	80331	0	12	-5.066		-0.639
	80331	0	13	-5.419		-0.687
	80331	0	14	-8.189		-1.022
	80331	0	15	-5.331		-0.672
	80331	1	0	-0.003		-0.003
	80331	1	1	1.495		0.183
	80331	1	2	-0.179		-0.036
	80331	1	3	0.622		0.072
	80331	1	4	0.172		0.019
	80331	1	5	1.993		0.242
	80331	1	6	0.444		0.048
	80331	1	7	0.607		0.068
	80331	1	8	-4.027		-0.523
	80331	1	9	-2.374		-0.303
	80331	1	10	17.877		2.225
	80331	1	11	-1.789		-0.221
	80331	1	12	-2.344		-0.309
	80331	1	13	-3.668		-0.462
	80331	1	14	-2.959		-0.377
	80331	1	15	-1.674		-0.210
	80332	0	0	1.200		0.146
	80332	0	1	0.487		0.053
	80332	0	2	2.424		0.298
	80332	0	3	2.198		0.267
	80332	0	4	0.758		0.087
	80332	0	5	1.868		0.225
	80332	0	6	2.510		0.311
	80332	0	7	2.546		0.305
	80332	0	8	-4.622		-0.603
	80332	0	9	-5.081		-0.666
	80332	0	10	-6.060		-0.768
	80332	0	11	-5.335		-0.686
	80332	0	12	-5.066		-0.639
	80332	0	13	-5.419		-0.687
	80332	0	14	-8.189		-1.022
	80332	0	15	-5.331		-0.672
	80332	1	0	-0.003		-0.003
	80332	1	1	1.495		0.183
	80332	1	2	-0.179		-0.036
	80332	1	3	0.622		0.072
	80332	1	4	0.172		0.019
	80332	1	5	1.993		0.242
	80332	1	6	0.444		0.048
	80332	1	7	0.607		0.068
	80332	1	8	-4.027		-0.523
	80332	1	9	-2.374		-0.303
	80332	1	10	17.877		2.225
	80332	1	11	-1.789		-0.221
	80332	1	12	-2.344		-0.309
	80332	1	13	-3.668		-0.462
	80332	1	14	-2.959		-0.377
	80332	1	15	-1.674		-0.210
	80333	0	0	1.200		0.146
	80333	0	1	0.487		0.053
	80333	0	2	2.424		0.298
	80333	0	3	2.198		0.267
	80333	0	4	0.758		0.087
	80333	0	5	1.868		0.225
	80333	0	6	2.510		0.311
	80333	0	7	2.546		0.305
	80333	0	8	-4.622		-0.603
	80333	0	9	-5.081		-0.666
	80333	0	10	-6.060		-0.768
	80333	0	11	-5.335		-0.686
	80333	0	12	-5.066		-0.639
	80333	0	13	-5.419		-0.687
	80333	0	14	-8.189		-1.022
	80333	0	15	-5.331		-0.672
	80333	1	0	-0.003		-0.003
	80333	1	1	1.495		0.183
	80333	1	2	-0.179		-0.036
	80333	1	3	0.622		0.072
	80333	1	4	0.172		0.019
	80333	1	5	1.993		0.242
	80333	1	6	0.444		0.048
	80333	1	7	0.607		0.068
	80333	1	8	-4.027		-0.523
	80333	1	9	-2.374		-0.303
	80333	1	10	17.877		2.225
	80333	1	11	-1.789		-0.221
	80333	1	12	-2.344		-0.309
	80333	1	13	-3.668		-0.462
	80333	1	14	-2.959		-0.377
	80333	1	15	-1.674		-0.210
	80334	0	0	1.200		0.146
	80334	0	1	0.487		0.053
	80334	0	2	2.424		0.298
	80334	0	3	2.198		0.267
	80334	0	4	0.758		0.087
	80334	0	5	1.868		0.225
	80334	0	6	2.510		0.311
	80334	0	7	2.546		0.305
	80334	0	8	-4.622		-0.603
	80334	0	9	-5.081		-0.666
	80334	0	10	-6.060		-0.768
	80334	0	11	-5.335		-0.686
	80334	0	12	-5.066		-0.639
	80334	0	13	-5.419		-0.687
	80334	0	14	-8.189		-1.022
	80334	0	15	-5.331		-0.672
	80334	1	0	-0.003		-0.003
	80334	1	1	1.495		0.183
	80334	1	2	-0.179		-0.036
	80334	1	3	0.622		0.072
	80334	1	4	0.172		0.019
	80334	1	5	1.993		0.242
	80334	1	6	0.444		0.048
	80334	1	7	0.607		0.068
	80334	1	8	-4.027		-0.523
	80334	1	9	-2.374		-0.303
	80334	1	10	17.877		2.225
	80334	1	11	-1.789		-0.221
	80334	1	12	-2.344		-0.309
	80334	1	13	-3.668		-0.462
	80334	1	14	-2.959		-0.377
	80334	1	15	-1.674		-0.210
	80335	0	0	1.200		0.146
	80335	0	1	0.487		0.053
	80335	0	2	2.424		0.298
	80335	0	3	2.198		0.267
	80335	0	4	0.758		0.087
	80335	0	5	1.868		0.225
	80335	0	6	2.510		0.311
	80335	0	7	2.546		0.305
	80335	0	8	-4.622		-0.603
	80335	0	9	-5.081		-0.666
	80335	0	10	-6.060		-0.768
	80335	0	11	-5.335		-0.686
	80335	0	12	-5.066		-0.639
	80335	0	13	-5.419		-0.687
	80335	0	14	-8.189		-1.022
	80335	0	15	-5.331		-0.672
	80335	1	0	-0.003		-0.003
	80335	1	1	1.495		0.183
	80335	1	2	-0.179		-0.036
	80335	1	3	0.622		0.072
	80335	1	4	0.172		0.019
	80335	1	5	1.993		0.242
	80335	1	6	0.444		0.048
	80335	1	7	0.607		0.068
	80335	1	8	-4.027		-0.523
	80335	1	9	-2.374		-0.303
	80335	1	10	17.877		2.225
	80335	1	11	-1.789		-0.221
	80335	1	12	-2.344		-0.309
	80335	1	13	-3.668		-0.462
	80335	1	14	-2.959		-0.377
	80335	1	15	-1.674		-0.210
	80336	0	0	1.200		0.146
	80336	0	1	0.487		0.053
	80336	0	2	2.424		0.298
	80336	0	3	2.198		0.267
	80336	0	4	0.758		0.087
	80336	0	5	1.868		0.225
	80336	0	6	2.510		0.311
	80336	0	7	2.546		0.305
	80336	0	8	-4.622		-0.603
	80336	0	9	-5.081		-0.666
	80336	0	10	-6.060		-0.768
	80336	0	11	-5.335		-0.686
	80336	0	12	-5.066		-0.639
	80336	0	13	-5.419		-0.687
	80336	0	14	-8.189		-1.022
	80336	0	15	-5.331		-0.672
	80336	1	0	-0.003		-0.003
	80336	1	1	1.495		0.183
	80336	1	2	-0.179		-0.036
	80336	1	3	0.622		0.072
	80336	1	4	0.172		0.019
	80336	1	5	1.993		0.242
	80336	1	6	0.444		0.048
	80336	1	7	0.607		0.068
	80336	1	8	-4.027		-0.523
	80336	1	9	-2.374		-0.303
	80336	1	10	17.877		2.225
	80336	1	11	-1.789		-0.221
	80336	1	12	-2.344		-0.309
	80336	1	13	-3.668		-0.462
	80336	1	14	-2.959		-0.377
	80336	1	15	-1.674		-0.210
	80337	0	0	1.200		0.146
	80337	0	1	0.487		0.053
	80337	0	2	2.424		0.298
	80337	0	3	2.198		0.267
	80337	0	4	0.758		0.087
	80337	0	5	1.868		0.225
	80337	0	6	2.510		0.311
	80337	0	7	2.546		0.305
	80337	0	8	-4.622		-0.603
	80337	0	9	-5.081		-0.666
	80337	0	10	-6.060		-0.768
	80337	0	11	-5.335		-0.686
	80337	0	12	-5.066		-0.639
	80337	0	13	-5.419		-0.687
	80337	0	14	-8.189		-1.022
	80337	0	15	-5.331		-0.672
	80337	1	0	-0.003		-0.003
	80337	1	1	1.495		0.183
	80337	1	2	-0.179		-0.036
	80337	1	3	0.622		0.072
	80337	1	4	0.172		0.019
	80337	1	5	1.993		0.242
	80337	1	6	0.444		0.048
	80337	1	7	0.607		0.068
	80337	1	8	-4.027		-0.523
	80337	1	9	-2.374		-0.303
	80337	1	10	17.877		2.225
	80337	1	11	-1.789		-0.221
	80337	1	12	-2.344		-0.309
	80337	1	13	-3.668		-0.462
	80337	1	14	-2.959		-0.377
	80337	1	15	-1.674		-0.210
	80338	0	0	1.200		0.146
	80338	0	1	0.487		0.053
	80338	0	2	2.424		0.298
	80338	0	3	2.198		0.267
	80338	0	4	0.758		0.087
	80338	0	5	1.868		0.225
	80338	0	6	2.510		0.311
	80338	0	7	2.546		0.305
	80338	0	8	-4.622		-0.603
	80338	0	9	-5.081		-0.666
	80338	0	10	-6.060		-0.768
	80338	0	11	-5.335		-0.686
	80338	0	12	-5.066		-0.639
	80338	0	13	-5.419		-0.687
	80338	0	14	-8.189		-1.022
	80338	0	15	-5.331		-0.672
	80338	1	0	-0.003		-0.003
	80338	1	1	1.495		0.183
	80338	1	2	-0.179		-0.036
	80338	1	3	0.622		0.072
	80338	1	4	0.172		0.019
	80338	1	5	1.993		0.242
	80338	1	6	0.444		0.048
	80338	1	7	0.607		0.068
	80338	1	8	-4.027		-0.523
	80338	1	9	-2.374		-0.303
	80338	1	10	17.877		2.225
	80338	1	11	-1.789		-0.221
	80338	1	12	-2.344		-0.309
	80338	1	13	-3.668		-0.462
	80338	1	14	-2.959		-0.377
	80338	1	15	-1.674		-0.210
	80339	0	0	1.200		0.146
	80339	0	1	0.487		0.053
	80339	0	2	2.424		0.298
	80339	0	3	2.198		0.267
	80339	0	4	0.758		0.087
	80339	0	5	1.868		0.225
	80339	0	6	2.510		0.311
	80339	0	7	2.546		0.305
	80339	0	8	-4.622		-0.603
	80339	0	9	-5.081		-0.666
	80339	0	10	-6.060		-0.768
	80339	0	11	-5.335		-0.686
	80339	0	12	-5.066		-0.639
	80339	0	13	-5.419		-0.687
	80339	0	14	-8.189		-1.022
	80339	0	15	-5.331		-0.672
	80339	1	0	-0.003		-0.003
	80339	1	1	1.495		0.183
	80339	1	2	-0.179		-0.036
	80339	1	3	0.622		0.072
	80339	1	4	0.172		0.019
	80339	1	5	1.993		0.242
	80339	1	6	0.444		0.048
	80339	1	7	0.607		0.068
	80339	1	8	-4.027		-0.523
	80339	1	9	-2.374		-0.303
	80339	1	10	17.877		2.225
	80339	1	11	-1.789		-0.221
	80339	1	12	-2.344		-0.309
	80339	1	13	-3.668		-0.462
	80339	1	14	-2.959		-0.377
	80339	1	15	-1.674		-0.210
	80340	0	0	1.200		0.146
	80340	0	1	0.487		0.053
	80340	0	2	2.424		0.298
	80340	0	3	2.198		0.267
	80340	0	4	0.758		0.087
	80340	0	5	1.868		0.225
	80340	0	6	2.510		0.311
	80340	0	7	2.546		0.305
	80340	0	8	-4.622		-0.603
	80340	0	9	-5.081		-0.666
	80340	0	10	-6.060		-0.768
	80340	0	11	-5.335		-0.686
	80340	0	12	-5.066		-0.639
	80340	0	13	-5.419		-0.687
	80340	0	14	-8.189		-1.022
	80340	0	15	-5.331		-0.672
	80340	1	0	-0.003		-0.003
	80340	1	1	1.495		0.183
	80340	1	2	-0.179		-0.036
	80340	1	3	0.622		0.072
	80340	1	4	0.172		0.019
	80340	1	5	1.993		0.242
	80340	1	6	0.444		0.048
	80340	1	7	0.607		0.068
	80340	1	8	-4.027		-0.523
	80340	1	9	-2.374		-0.303
	80340	1	10	17.877		2.225
	80340	1	11	-1.789		-0.221
	80340	1	12	-2.344		-0.309
	80340	1	13	-3.668		-0.462
	80340	1	14	-2.959		-0.377
	80340	1	15	-1.674		-0.210
	80341	0	0	1.200		0.146
	80341	0	1	0.487		0.053
	80341	0	2	2.424		0.298
	80341	0	3	2.198		0.267
	80341	0	4	0.758		0.087
	80341	0	5	1.868		0.225
	80341	0	6	2.510		0.311
	80341	0	7	2.546		0.305
	80341	0	8	-4.622		-0.603
	80341	0	9	-5.081		-0.666
	80341	0	10	-6.060		-0.768
	80341	0	11	-5.335		-0.686
	80341	0	12	-5.066		-0.639
	80341	0	13	-5.419		-0.687
	80341	0	14	-8.189		-1.022
	80341	0	15	-5.331		-0.672
	80341	1	0	-0.003		-0.003
	80341	1	1	1.495		0.183
	80341	1	2	-0.179		-0.036
	80341	1	3	0.622		0.072
	80341	1	4	0.172		0.019
	80341	1	5	1.993		0.242
	80341	1	6	0.444		0.048
	80341	1	7	0.607		0.068
	80341	1	8	-4.027		-0.523
	80341	1	9	-2.374		-0.303
	80341	1	10	17.877		2.225
	80341	1	11	-1.789		-0.221
	80341	1	12	-2.344		-0.309
	80341	1	13	-3.668		-0.462
	80341	1	14	-2.959		-0.377
	80341	1	15	-1.674		-0.210
	80344	0	0	1.200		0.146
	80344	0	1	0.487		0.053
	80344	0	2	2.424		0.298
	80344	0	3	2.198		0.267
	80344	0	4	0.758		0.087
	80344	0	5	1.868		0.225
	80344	0	6	2.510		0.311
	80344	0	7	2.546		0.305
	80344	0	8	-4.622		-0.603
	80344	0	9	-5.081		-0.666
	80344	0	10	-6.060		-0.768
	80344	0	11	-5.335		-0.686
	80344	0	12	-5.066		-0.639
	80344	0	13	-5.419		-0.687
	80344	0	14	-8.189		-1.022
	80344	0	15	-5.331		-0.672
	80344	1	0	-0.003		-0.003
	80344	1	1	1.495		0.183
	80344	1	2	-0.179		-0.036
	80344	1	3	0.622		0.072
	80344	1	4	0.172		0.019
	80344	1	5	1.993		0.242
	80344	1	6	0.444		0.048
	80344	1	7	0.607		0.068
	80344	1	8	-4.027		-0.523
	80344	1	9	-2.374		-0.303
	80344	1	10	17.877		2.225
	80344	1	11	-1.789		-0.221
	80344	1	12	-2.344		-0.309
	80344	1	13	-3.668		-0.462
	80344	1	14	-2.959		-0.377
	80344	1	15	-1.674		-0.210
	80345	0	0	1.200		0.146
	80345	0	1	0.487		0.053
	80345	0	2	2.424		0.298
	80345	0	3	2.198		0.267
	80345	0	4	0.758		0.087
	80345	0	5	1.868		0.225
	80345	0	6	2.510		0.311
	80345	0	7	2.546		0.305
	80345	0	8	-4.622		-0.603
	80345	0	9	-5.081		-0.666
	80345	0	10	-6.060		-0.768
	80345	0	11	-5.335		-0.686
	80345	0	12	-5.066		-0.639
	80345	0	13	-5.419		-0.687
	80345	0	14	-8.189		-1.022
	80345	0	15	-5.331		-0.672
	80345	1	0	-0.003		-0.003
	80345	1	1	1.495		0.183
	80345	1	2	-0.179		-0.036
	80345	1	3	0.622		0.072
	80345	1	4	0.172		0.019
	80345	1	5	1.993		0.242
	80345	1	6	0.444		0.048
	80345	1	7	0.607		0.068
	80345	1	8	-4.027		-0.523
	80345	1	9	-2.374		-0.303
	80345	1	10	17.877		2.225
	80345	1	11	-1.789		-0.221
	80345	1	12	-2.344		-0.309
	80345	1	13	-3.668		-0.462
	80345	1	14	-2.959		-0.377
	80345	1	15	-1.674		-0.210
	80346	0	0	1.200		0.146
	80346	0	1	0.487		0.053
	80346	0	2	2.424		0.298
	80346	0	3	2.198		0.267
	80346	0	4	0.758		0.087
	80346	0	5	1.868		0.225
	80346	0	6	2.510		0.311
	80346	0	7	2.546		0.305
	80346	0	8	-4.622		-0.603
	80346	0	9	-5.081		-0.666
	80346	0	10	-6.060		-0.768
	80346	0	11	-5.335		-0.686
	80346	0	12	-5.066		-0.639
	80346	0	13	-5.419		-0.687
	80346	0	14	-8.189		-1.022
	80346	0	15	-5.331		-0.672
	80346	1	0	-0.003		-0.003
	80346	1	1	1.495		0.183
	80346	1	2	-0.179		-0.036
	80346	1	3	0.622		0.072
	80346	1	4	0.172		0.019
	80346	1	5	1.993		0.242
	80346	1	6	0.444		0.048
	80346	1	7	0.607		0.068
	80346	1	8	-4.027		-0.523
	80346	1	9	-2.374		-0.303
	80346	1	10	17.877		2.225
	80346	1	11	-1.789		-0.221
	80346	1	12	-2.344		-0.309
	80346	1	13	-3.668		-0.462
	80346	1	14	-2.959		-0.377
	80346	1	15	-1.674		-0.210
