#This is the calorimeter pedestal file needed in the software (if ignoring delayed gate)!
#Events are selected using a three step iteration procedure
#At each iteration we use the value of x=Pedestal-Delayed
#The event is removed if on a given layer (x-<x>) > 5 sigma
#	Tower	Layer	Range	Mean (Pedestal)	RMS (Pedestal)
	0	0	0	1091.007	40.245
	0	0	1	143.156		5.081
	0	1	0	1087.000	39.341
	0	1	1	140.653		4.951
	0	2	0	1115.789	53.983
	0	2	1	144.699		6.803
	0	3	0	1087.299	34.363
	0	3	1	139.103		4.327
	0	4	0	1118.223	34.354
	0	4	1	143.454		4.328
	0	5	0	1072.198	54.249
	0	5	1	134.432		6.841
	0	6	0	1122.075	94.822
	0	6	1	142.405		11.912
	0	7	0	1118.299	38.946
	0	7	1	143.824		4.911
	0	8	0	1041.738	43.416
	0	8	1	136.329		5.502
	0	9	0	1076.784	71.366
	0	9	1	139.377		9.009
	0	10	0	1074.125	33.735
	0	10	1	139.258		4.275
	0	11	0	1126.868	49.595
	0	11	1	141.568		6.236
	0	12	0	1070.828	38.411
	0	12	1	140.415		4.869
	0	13	0	1172.658	64.924
	0	13	1	151.178		8.163
	0	14	0	1158.128	72.265
	0	14	1	151.790		9.069
	0	15	0	1075.888	38.634
	0	15	1	138.759		4.880
	1	0	0	1050.076	30.381
	1	0	1	132.096		3.815
	1	1	0	1000.301	59.287
	1	1	1	126.202		7.438
	1	2	0	1040.626	53.206
	1	2	1	132.530		6.673
	1	3	0	1040.539	56.726
	1	3	1	132.880		7.118
	1	4	0	1083.127	75.865
	1	4	1	137.545		9.488
	1	5	0	1060.944	39.740
	1	5	1	133.821		4.998
	1	6	0	1036.372	51.712
	1	6	1	132.076		6.477
	1	7	0	1046.533	53.487
	1	7	1	136.519		6.728
	1	8	0	1031.979	43.871
	1	8	1	131.333		5.515
	1	9	0	1104.700	62.146
	1	9	1	139.515		7.803
	1	10	0	1096.641	52.810
	1	10	1	140.549		6.604
	1	11	0	1099.728	56.126
	1	11	1	139.163		7.028
	1	12	0	1089.147	33.019
	1	12	1	138.065		4.156
	1	13	0	1080.632	42.603
	1	13	1	134.865		5.347
	1	14	0	1126.019	39.313
	1	14	1	146.348		4.929
	1	15	0	1072.830	48.678
	1	15	1	135.617		6.097
