#This is the calorimeter pedestal file needed in the software (if ignoring delayed gate)!
#Events are selected using a three step iteration procedure
#At each iteration we use the value of x=Pedestal-Delayed
#The event is removed if on a given layer (x-<x>) > 5 sigma
#	Tower	Layer	Range	Mean (Pedestal)	RMS (Pedestal)
	0	0	0	1090.260	40.191
	0	0	1	143.061		5.076
	0	1	0	1085.975	39.052
	0	1	1	140.525		4.916
	0	2	0	1114.899	55.674
	0	2	1	144.588		7.013
	0	3	0	1085.998	34.289
	0	3	1	138.941		4.317
	0	4	0	1116.695	34.484
	0	4	1	143.262		4.346
	0	5	0	1071.388	54.395
	0	5	1	134.333		6.857
	0	6	0	1120.105	94.948
	0	6	1	142.162		11.927
	0	7	0	1116.473	39.030
	0	7	1	143.595		4.923
	0	8	0	1039.770	43.432
	0	8	1	136.083		5.504
	0	9	0	1075.469	71.428
	0	9	1	139.214		9.015
	0	10	0	1072.150	33.706
	0	10	1	139.011		4.268
	0	11	0	1125.865	48.638
	0	11	1	141.442		6.118
	0	12	0	1069.332	38.478
	0	12	1	140.226		4.878
	0	13	0	1170.781	64.939
	0	13	1	150.946		8.166
	0	14	0	1156.042	72.492
	0	14	1	151.529		9.099
	0	15	0	1074.399	38.610
	0	15	1	138.570		4.877
	1	0	0	1048.129	30.653
	1	0	1	131.855		3.851
	1	1	0	998.757		59.378
	1	1	1	126.011		7.451
	1	2	0	1039.069	53.222
	1	2	1	132.336		6.675
	1	3	0	1038.419	56.523
	1	3	1	132.614		7.092
	1	4	0	1080.584	75.857
	1	4	1	137.227		9.484
	1	5	0	1058.697	39.813
	1	5	1	133.539		5.007
	1	6	0	1034.350	51.600
	1	6	1	131.825		6.463
	1	7	0	1044.702	53.669
	1	7	1	136.290		6.751
	1	8	0	1028.519	44.056
	1	8	1	130.902		5.539
	1	9	0	1100.867	62.130
	1	9	1	139.036		7.798
	1	10	0	1093.389	52.626
	1	10	1	140.143		6.581
	1	11	0	1096.314	55.394
	1	11	1	138.741		6.938
	1	12	0	1086.053	33.045
	1	12	1	137.680		4.160
	1	13	0	1077.871	42.346
	1	13	1	134.521		5.316
	1	14	0	1122.925	39.242
	1	14	1	145.962		4.920
	1	15	0	1070.173	48.534
	1	15	1	135.287		6.080
